^C:\USERS\PNA20\ONEDRIVE\DOCUMENTS\TEACHING\CARDIFF MET\YEAR1819\CIS5013 - REAL-TIME COMPUTER GRAPHICS\WEEK01 - INTRODUCTION\TUTORIAL01\MAIN.CPP
C:\USERS\PNA20\ONEDRIVE\DOCUMENTS\TEACHING\CARDIFF MET\YEAR1819\CIS5013 - REAL-TIME COMPUTER GRAPHICS\WEEK01 - INTRODUCTION\TUTORIAL01\DEBUG\VC141.PDB
C:\USERS\PNA20\ONEDRIVE\DOCUMENTS\TEACHING\CARDIFF MET\YEAR1819\CIS5013 - REAL-TIME COMPUTER GRAPHICS\WEEK01 - INTRODUCTION\TUTORIAL01\DEBUG\VC141.IDB
C:\USERS\PNA20\ONEDRIVE\DOCUMENTS\TEACHING\CARDIFF MET\YEAR1819\CIS5013 - REAL-TIME COMPUTER GRAPHICS\WEEK01 - INTRODUCTION\TUTORIAL01\DEBUG\MAIN.OBJ
