# Blender v2.79 (sub 0) OBJ File: 'limbo.blend'
# www.blender.org
mtllib Limbo.mtl
o Cube
v 6.929115 -4.415334 -0.663731
v 6.929115 -4.415334 0.663731
v -6.929116 -4.415334 0.663731
v -6.929112 -4.415334 -0.663731
v 6.929118 4.415334 -0.663730
v 6.929110 4.415334 0.663731
v -6.929117 4.415334 0.663730
v -6.929114 4.415334 -0.663731
v 5.806379 -3.438842 0.663731
v -5.806381 -3.438842 0.663730
v 5.806376 3.438842 0.663731
v -5.806383 3.438842 0.663730
v 5.796166 -3.432793 -0.663731
v -5.796163 -3.432793 -0.663731
v 5.796168 3.432793 -0.663730
v -5.796165 3.432793 -0.663731
v -6.929116 -1.831196 0.663730
v -6.929113 -1.831196 -0.663731
v -5.806381 -1.831196 0.663730
v -5.796164 -1.831196 -0.663731
v -6.929116 -1.403111 0.663730
v -6.929113 -1.403111 -0.663731
v -5.806381 -1.451036 0.663730
v -5.796164 -1.451333 -0.663731
v 6.929116 -1.413201 -0.663730
v 6.929112 -1.413201 0.663731
v 5.806377 -1.458259 0.663731
v 5.796167 -1.434106 -0.663730
v -6.929116 -1.162559 0.663730
v -6.929113 -1.162559 -0.663731
v -5.806381 -1.248874 0.663730
v -5.796164 -1.249408 -0.663731
v 6.929116 -1.193218 -0.663730
v 6.929112 -1.193218 0.663731
v 5.806377 -1.230835 0.663731
v 5.796167 -1.255499 -0.663730
v 4.675841 4.415334 -0.663730
v 4.675836 4.415334 0.663731
v 4.675836 3.438842 0.663731
v 4.675841 3.432793 -0.663730
v 3.590155 4.415334 -0.663730
v 3.590149 4.415334 0.663731
v 3.591841 3.438842 0.663731
v 3.592083 3.432793 -0.663730
v 4.675836 -3.432815 0.695156
v 4.675841 -3.438864 -0.632305
v 3.591841 -3.432815 0.695156
v 3.592083 -3.438864 -0.632305
v 3.226019 4.415334 -0.663730
v 3.226014 4.415334 0.663731
v 3.232872 3.438842 0.663731
v 3.233160 3.432793 -0.663730
v 2.910463 4.415334 -0.663730
v 2.910457 4.415334 0.663731
v 2.919972 3.438842 0.663731
v 2.920283 3.432793 -0.663730
v 3.232872 -3.432815 0.695045
v 3.233160 -3.438864 -0.632416
v 2.919972 -3.432815 0.695045
v 2.920283 -3.438864 -0.632416
v -3.815128 -1.448389 -0.663731
v -3.821855 -1.452270 0.663731
v -3.815128 -1.250449 -0.663731
v -3.821855 -1.245791 0.663731
v -0.368006 -1.443267 -0.663731
v -0.368658 -1.454418 0.663731
v -0.368006 -1.252261 -0.663731
v -0.368658 -1.240427 0.663731
v -3.816004 0.449253 -0.674292
v -3.822730 0.453912 0.653169
v -0.368881 0.447442 -0.674292
v -0.369533 0.459276 0.653169
v -3.075018 1.251927 -0.388638
v -3.078849 1.254580 0.367516
v -1.111455 1.250895 -0.388638
v -1.111826 1.257636 0.367516
v -2.355503 -1.243890 0.663731
v -1.850929 -1.243056 0.663731
v -2.355516 -0.536330 0.660008
v -1.850891 -0.536330 0.660013
v -2.332529 -1.243740 0.663731
v -1.870762 -1.243306 0.663731
v -3.366070 0.164591 0.654443
v -2.852392 0.165280 0.654290
v -2.849885 -0.206088 0.657016
v -3.364003 -0.205399 0.656654
v -1.317640 0.178927 0.657257
v -0.804898 0.180304 0.657126
v -0.805587 -0.195636 0.659524
v -1.317640 -0.195636 0.659668
v -3.569120 -0.535742 0.659185
v -3.209653 -0.536431 0.659485
v -3.210341 -1.000440 0.661753
v -3.568431 -0.997686 0.661254
v -1.004567 -0.533676 0.659251
v -0.650361 -0.536871 0.658898
v -0.648984 -1.002332 0.661188
v -1.002501 -1.000192 0.661188
v -1.934268 0.221518 0.666453
v -2.286093 0.223994 0.666408
v -2.286504 -0.241848 0.669001
v -1.933729 -0.242289 0.668464
v -3.405232 -0.536056 0.659322
v -3.405171 -0.998942 0.661482
v -3.377249 -0.536109 0.659345
v -3.377295 -0.999156 0.661520
v -3.568795 -0.753260 0.660159
v -3.209977 -0.754922 0.660553
v -3.405203 -0.754018 0.660339
v -3.377271 -0.754147 0.660369
v -3.618910 -0.614853 0.659691
v -3.568755 -0.780493 0.660281
v -3.210018 -0.782277 0.660687
v -3.405200 -0.781306 0.660466
v -3.377274 -0.781445 0.660498
v -0.839663 -0.535164 0.659087
v -0.837918 -1.001189 0.661188
v -0.807318 -0.535564 0.659042
v -0.805659 -1.001457 0.661188
v -0.649728 -0.744734 0.659951
v -1.003617 -0.748048 0.660141
v -0.838861 -0.749309 0.660052
v -0.806556 -0.749649 0.660029
v -0.649634 -0.782440 0.660106
v -1.003477 -0.785826 0.660273
v -0.838742 -0.781030 0.660195
v -0.806443 -0.781361 0.660175
v -2.122298 0.222841 0.666429
v -2.122267 -0.242054 0.668751
v -2.089731 -0.242094 0.668701
v -2.089850 0.222613 0.666433
v -2.286282 0.008990 0.667605
v -1.934019 0.007453 0.667381
v -2.122283 0.008275 0.667501
v -2.089795 0.008133 0.667480
v -2.286309 -0.020872 0.667771
v -1.933985 -0.022278 0.667510
v -2.122281 -0.021526 0.667649
v -2.089788 -0.021656 0.667625
v -2.851260 -0.002434 0.655521
v -3.365137 -0.002501 0.655442
v -2.851058 -0.032383 0.655740
v -3.364970 -0.032339 0.655620
v -1.568343 -1.445050 -0.663731
v -1.571110 -1.453670 0.663731
v -1.568343 -1.251630 -0.663731
v -1.569219 0.448073 -0.674292
v -1.571986 0.457408 0.653169
v -1.795196 1.251254 -0.388638
v -1.796772 1.256572 0.367516
v -3.040344 0.165040 0.654343
v -3.037990 -0.205848 0.656890
v -3.039281 -0.002458 0.655493
v -3.039091 -0.032368 0.655699
v -3.205537 -0.205623 0.656772
v -2.691736 -1.446720 -0.663731
v -2.696483 -1.452970 0.663731
v -2.691736 -1.251040 -0.663731
v -2.692611 0.448663 -0.674292
v -2.697358 0.455660 0.653169
v -2.435107 1.251591 -0.388638
v -2.437811 1.255576 0.367516
v -3.207747 0.164816 0.654393
v -3.206749 -0.002479 0.655467
v -3.206571 -0.032354 0.655659
v -2.535709 -1.446488 -0.663731
v -2.540181 -1.453068 0.663731
v -2.535709 -1.251122 -0.663731
v -2.536584 0.448581 -0.674292
v -2.541056 0.455903 0.653169
v -2.346230 1.251544 -0.388638
v -2.348777 1.255714 0.367516
v -3.184497 0.164847 0.654386
v -3.183490 -0.002476 0.655471
v -3.183310 -0.032356 0.655665
v -3.182267 -0.205655 0.656788
v -1.378817 -1.444769 -0.663731
v -1.381250 -1.453788 0.663731
v -1.378816 -1.251730 -0.663731
v -1.379692 0.447973 -0.674292
v -1.382125 0.457703 0.653169
v -1.687237 1.251198 -0.388638
v -1.688623 1.256740 0.367516
v -3.012101 0.165078 0.654335
v -3.011027 -0.002454 0.655498
v -3.010835 -0.032370 0.655705
v -3.009723 -0.205886 0.656909
v -0.805218 0.005760 0.658239
v -1.317640 0.005022 0.658377
v -0.805274 -0.024887 0.658435
v -1.317640 -0.025513 0.658573
v -1.134592 0.179394 0.657213
v -1.134826 -0.195636 0.659619
v -1.134701 0.005273 0.658330
v -1.134720 -0.025300 0.658526
v -0.956048 0.179874 0.657167
v -0.956268 0.005530 0.658282
v -0.956307 -0.025082 0.658478
v -0.956522 -0.195636 0.659569
v -0.979983 -0.195636 0.659576
v -0.979541 0.179811 0.657173
v -0.979746 0.005496 0.658289
v -0.979782 -0.025111 0.658484
v -1.157686 -0.195636 0.659626
v -1.157483 0.179333 0.657219
v -1.157577 0.005240 0.658336
v -1.157593 -0.025328 0.658532
v -1.551417 -0.533676 0.659251
v -1.197211 -0.536871 0.658898
v -1.195834 -1.002332 0.661188
v -1.549351 -1.000192 0.661188
v -1.386513 -0.535164 0.659087
v -1.384768 -1.001189 0.661188
v -1.354168 -0.535564 0.659042
v -1.352509 -1.001457 0.661188
v -1.196578 -0.744734 0.659951
v -1.550467 -0.748048 0.660141
v -1.385711 -0.749309 0.660052
v -1.353405 -0.749649 0.660029
v -1.196484 -0.782440 0.660106
v -1.550327 -0.785826 0.660273
v -1.385592 -0.781030 0.660195
v -1.353293 -0.781361 0.660175
v -3.017325 -0.535742 0.659185
v -2.657857 -0.536431 0.659485
v -2.658546 -1.000440 0.661753
v -3.016636 -0.997686 0.661254
v -2.853436 -0.536056 0.659322
v -2.853375 -0.998942 0.661482
v -2.825454 -0.536109 0.659345
v -2.825500 -0.999156 0.661520
v -3.017000 -0.753260 0.660159
v -2.658181 -0.754922 0.660553
v -2.853408 -0.754018 0.660339
v -2.825475 -0.754147 0.660369
v -3.016960 -0.780493 0.660281
v -2.658222 -0.782277 0.660687
v -2.853404 -0.781306 0.660466
v -2.825478 -0.781445 0.660498
v -5.858694 -3.424921 -0.000000
v 5.858693 -3.424921 -0.000000
v -5.858694 3.466656 0.000000
v 5.858693 3.466656 0.000000
v 6.889110 -4.389842 -0.659899
v 6.889110 -4.389842 0.659899
v -6.889111 -4.389842 0.659898
v -6.889107 -4.389842 -0.659899
v 6.889113 4.389842 -0.659898
v 6.889105 4.389842 0.659899
v -6.889112 4.389842 0.659898
v -6.889109 4.389842 -0.659899
v 5.833371 -3.439166 0.657618
v -5.834645 -3.456853 0.658309
v 5.827251 3.452143 0.657726
v -5.827259 3.452143 0.657726
v 5.823189 -3.433114 -0.657619
v -5.824472 -3.450832 -0.658314
v 5.817074 3.446115 -0.657728
v -5.817070 3.446115 -0.657728
v -6.880122 -1.831196 0.659037
v -6.880118 -1.831196 -0.659038
v -5.859477 -1.812712 0.660495
v -5.849280 -1.812688 -0.660502
v -6.880122 -1.403111 0.659037
v -6.880118 -1.403111 -0.659038
v -5.843415 -1.462824 0.658408
v -5.852718 -1.469379 -0.661020
v 6.880122 -1.413201 -0.659037
v 6.880118 -1.413201 0.659038
v 5.843373 -1.470046 0.658406
v 5.852796 -1.452144 -0.661033
v -6.880122 -1.162559 0.659037
v -6.880118 -1.162559 -0.659038
v -5.843362 -1.260664 0.658405
v -5.852744 -1.267438 -0.661023
v 6.880122 -1.193218 -0.659037
v 6.880118 -1.193218 0.659038
v 5.843471 -1.242632 0.658413
v 5.852741 -1.273532 -0.661022
v 4.675841 4.384114 -0.659037
v 4.675836 4.384114 0.659038
v 4.654531 3.451762 0.657721
v 4.655360 3.446500 -0.657734
v 3.590155 4.384114 -0.659037
v 3.590149 4.384114 0.659038
v 3.613147 3.451762 0.657721
v 3.612561 3.446498 -0.657734
v 4.635939 -3.407690 0.691260
v 4.635728 -3.413015 -0.628538
v 3.631739 -3.407690 0.691260
v 3.632196 -3.413015 -0.628538
v 3.226019 4.384114 -0.659037
v 3.226014 4.384114 0.659038
v 3.211567 3.451762 0.657721
v 3.212679 3.446498 -0.657734
v 2.910463 4.384114 -0.659037
v 2.910457 4.384114 0.659038
v 2.941277 3.451763 0.657721
v 2.940764 3.446497 -0.657734
v 3.192975 -3.407688 0.691149
v 3.193047 -3.413017 -0.628649
v 2.959869 -3.407688 0.691149
v 2.960396 -3.413017 -0.628649
v -3.815019 -1.479601 -0.668425
v -3.821895 -1.483488 0.659037
v -3.773888 -1.275006 -0.667580
v -3.801721 -1.259801 0.657739
v -0.367892 -1.474468 -0.668427
v -0.368679 -1.485613 0.659033
v -0.409242 -1.276817 -0.667581
v -0.388646 -1.254484 0.657737
v -3.774011 0.429672 -0.669909
v -3.780409 0.433317 0.648923
v -0.410896 0.427874 -0.669910
v -0.412347 0.438317 0.649009
v -3.044148 1.212852 -0.387740
v -3.047876 1.215529 0.366628
v -1.142367 1.211835 -0.387739
v -1.142635 1.218530 0.366629
v -2.355194 -1.244581 0.657094
v -1.851352 -1.243850 0.657094
v -2.354700 -0.531026 0.653419
v -1.852397 -0.531288 0.653421
v -2.332529 -1.243740 0.657093
v -1.870762 -1.243306 0.657093
v -3.366542 0.162996 0.647811
v -2.846326 0.162065 0.647696
v -2.840680 -0.207259 0.650440
v -3.364917 -0.207423 0.650024
v -1.326504 0.182569 0.650697
v -0.806790 0.177349 0.650506
v -0.809879 -0.196074 0.652900
v -1.323878 -0.195229 0.653058
v -3.569439 -0.537667 0.652554
v -3.210217 -0.538464 0.652855
v -3.211834 -1.001588 0.655119
v -3.569992 -0.999952 0.654627
v -1.004061 -0.533861 0.652614
v -0.650410 -0.537971 0.652263
v -0.647131 -1.004576 0.654562
v -1.002450 -1.002627 0.654561
v -1.938521 0.212372 0.659972
v -2.269858 0.187855 0.662927
v -2.278847 -0.237779 0.662433
v -1.939718 -0.238016 0.661883
v -3.404640 -0.538109 0.652692
v -3.404219 -1.001606 0.654857
v -3.376653 -0.538163 0.652715
v -3.376342 -1.001828 0.654896
v -3.570007 -0.754575 0.653526
v -3.210683 -0.756348 0.653919
v -3.404423 -0.755387 0.653705
v -3.376490 -0.755524 0.653736
v -3.620226 -0.616439 0.653060
v -3.569958 -0.781811 0.653648
v -3.210779 -0.783683 0.654053
v -3.404402 -0.782678 0.653832
v -3.376478 -0.782824 0.653864
v -0.840535 -0.535351 0.652450
v -0.837969 -1.003737 0.654562
v -0.808193 -0.535734 0.652406
v -0.805708 -1.004019 0.654562
v -0.647518 -0.746107 0.653320
v -1.003296 -0.749166 0.653506
v -0.839388 -0.750642 0.653418
v -0.807031 -0.750984 0.653394
v -0.646818 -0.783677 0.653477
v -1.003240 -0.786972 0.653638
v -0.839210 -0.782338 0.653561
v -0.806878 -0.782704 0.653540
v -2.122393 0.212237 0.659986
v -2.123328 -0.236579 0.662166
v -2.090584 -0.236860 0.662111
v -2.089956 0.212054 0.659988
v -2.276179 0.007330 0.661043
v -1.941275 0.006120 0.660783
v -2.122768 0.006810 0.660867
v -2.090280 0.006694 0.660846
v -2.276414 -0.022532 0.661207
v -1.941037 -0.023609 0.660910
v -2.122821 -0.022986 0.661016
v -2.090327 -0.023089 0.660992
v -2.841063 -0.004520 0.648963
v -3.365579 -0.004256 0.648810
v -2.840859 -0.034484 0.649183
v -3.365659 -0.034172 0.648989
v -1.568231 -1.476256 -0.668426
v -1.571153 -1.484877 0.659035
v -1.568286 -1.207486 -0.663868
v -1.569248 0.424439 -0.668685
v -1.571893 0.432492 0.647690
v -1.795251 1.207986 -0.387316
v -1.796609 1.213288 0.366206
v -3.040534 0.163683 0.647709
v -3.037497 -0.207877 0.650260
v -3.039162 -0.004471 0.648863
v -3.038930 -0.034387 0.649068
v -3.205034 -0.207862 0.650143
v -2.691624 -1.477929 -0.668426
v -2.696525 -1.484182 0.659036
v -2.691679 -1.206897 -0.663868
v -2.692641 0.425029 -0.668685
v -2.697265 0.430722 0.647692
v -2.435162 1.208321 -0.387317
v -2.437650 1.212293 0.366205
v -3.207879 0.163359 0.647760
v -3.206625 -0.004361 0.648836
v -3.206406 -0.034240 0.649028
v -2.535599 -1.477694 -0.668426
v -2.540227 -1.484277 0.659036
v -2.535652 -1.206978 -0.663868
v -2.536614 0.424947 -0.668685
v -2.540967 0.430981 0.647691
v -2.346283 1.208274 -0.387317
v -2.348612 1.212430 0.366205
v -3.184696 0.163499 0.647752
v -3.183373 -0.004372 0.648840
v -3.183151 -0.034258 0.649034
v -3.181890 -0.207788 0.650159
v -1.378707 -1.475971 -0.668426
v -1.381296 -1.484994 0.659035
v -1.378759 -1.207587 -0.663868
v -1.379721 0.424340 -0.668685
v -1.382032 0.432805 0.647688
v -1.687289 1.207930 -0.387316
v -1.688458 1.213456 0.366206
v -3.012304 0.163913 0.647700
v -3.010913 -0.004485 0.648867
v -3.010679 -0.034407 0.649075
v -3.009232 -0.207915 0.650279
v -0.807694 0.003891 0.651612
v -1.324660 0.003155 0.651780
v -0.807746 -0.026756 0.651808
v -1.324641 -0.027391 0.651976
v -1.134753 0.176063 0.650594
v -1.134913 -0.195946 0.652982
v -1.134887 0.003390 0.651699
v -1.134908 -0.027183 0.651895
v -0.956211 0.176548 0.650549
v -0.956459 0.003654 0.651651
v -0.956499 -0.026960 0.651847
v -0.956761 -0.196039 0.652932
v -0.980184 -0.196069 0.652939
v -0.979704 0.176486 0.650555
v -0.979932 0.003619 0.651657
v -0.979971 -0.026988 0.651853
v -1.157884 -0.195840 0.652988
v -1.157639 0.176000 0.650600
v -1.157759 0.003357 0.651705
v -1.157777 -0.027211 0.651901
v -1.555124 -0.531610 0.652630
v -1.196545 -0.537007 0.652261
v -1.195758 -1.004835 0.654562
v -1.551258 -1.002298 0.654561
v -1.387408 -0.535217 0.652450
v -1.384825 -1.003656 0.654562
v -1.355045 -0.535629 0.652406
v -1.352547 -1.003942 0.654562
v -1.196138 -0.745979 0.653316
v -1.551603 -0.749123 0.653507
v -1.386238 -0.750642 0.653418
v -1.353881 -0.750984 0.653394
v -1.196173 -0.783725 0.653472
v -1.552059 -0.787103 0.653641
v -1.386060 -0.782338 0.653561
v -1.353728 -0.782704 0.653540
v -3.017769 -0.537627 0.652554
v -2.653651 -0.535452 0.652862
v -2.657102 -1.002094 0.655122
v -3.017270 -0.999763 0.654625
v -2.852842 -0.537880 0.652690
v -2.852405 -1.000662 0.654850
v -2.824857 -0.537934 0.652714
v -2.824527 -1.000878 0.654889
v -3.017671 -0.754602 0.653525
v -2.657084 -0.756353 0.653920
v -2.852628 -0.755387 0.653705
v -2.824695 -0.755524 0.653736
v -3.017674 -0.781816 0.653647
v -2.656972 -0.783759 0.654054
v -2.852607 -0.782678 0.653833
v -2.824683 -0.782824 0.653864
v -5.858694 -3.424921 -0.006637
v 5.858693 -3.424921 -0.006637
v -5.858694 3.466656 -0.006637
v 5.858693 3.466656 -0.006637
vt 0.672572 0.166173
vt 0.754869 0.000003
vt 0.754869 0.166176
vt 0.672572 0.166178
vt 0.590276 0.048189
vt 0.672572 0.048189
vt 0.507978 0.166177
vt 0.560247 0.000000
vt 0.560247 0.166177
vt 0.614373 0.332355
vt 0.599395 0.318892
vt 0.614373 0.318892
vt 0.507978 0.332354
vt 0.559961 0.166177
vt 0.559961 0.332354
vt 0.700546 0.332353
vt 0.681727 0.318768
vt 0.700351 0.318768
vt 0.900822 0.832530
vt 0.882421 0.998707
vt 0.882364 0.832530
vt 0.620317 0.166178
vt 0.663473 0.179641
vt 0.619966 0.179641
vt 0.590297 0.332355
vt 0.599394 0.179640
vt 0.672572 0.214366
vt 0.663474 0.318892
vt 0.663474 0.214252
vt 0.585698 0.806300
vt 0.579045 0.972474
vt 0.578984 0.806300
vt 0.754855 0.305334
vt 0.745700 0.318768
vt 0.745700 0.305334
vt 0.702881 0.166176
vt 0.745700 0.179762
vt 0.702072 0.179762
vt 0.672572 0.332353
vt 0.681728 0.179762
vt 0.892320 0.497574
vt 0.823418 0.663749
vt 0.823357 0.497574
vt 0.949371 0.327551
vt 0.964297 0.493728
vt 0.949371 0.493728
vt 0.945830 0.493728
vt 0.945828 0.327551
vt 0.696651 0.166176
vt 0.672572 0.166176
vt 0.566193 0.332354
vt 0.590276 0.166177
vt 0.617915 0.318892
vt 0.618362 0.332355
vt 0.957816 0.304632
vt 0.972400 0.168780
vt 0.972400 0.311015
vt 0.668863 0.806347
vt 0.654224 0.670269
vt 0.668863 0.663848
vt 0.590296 0.663848
vt 0.659299 0.497573
vt 0.659299 0.663745
vt 0.619799 0.318892
vt 0.620603 0.332355
vt 0.943949 0.493728
vt 0.943944 0.327551
vt 0.700190 0.179762
vt 0.696651 0.179762
vt 0.562203 0.332354
vt 0.566193 0.166177
vt 0.618267 0.166178
vt 0.590296 0.166178
vt 0.902712 0.998707
vt 0.902942 0.832530
vt 0.702015 0.318768
vt 0.702595 0.332353
vt 0.562297 0.166177
vt 0.590276 0.000000
vt 0.590276 0.166177
vt 0.786687 0.497575
vt 0.823295 0.663749
vt 0.786689 0.663749
vt 0.900313 0.493728
vt 0.900256 0.327551
vt 0.672572 0.332355
vt 0.700640 0.166176
vt 0.562203 0.166177
vt 0.754855 0.332353
vt 0.946405 0.998707
vt 0.946461 0.832530
vt 0.617847 0.179641
vt 0.562297 0.000000
vt 0.891130 0.231267
vt 0.892824 0.305183
vt 0.891160 0.305183
vt 0.619877 0.253687
vt 0.957536 0.000001
vt 0.994146 0.166178
vt 0.957540 0.166178
vt 0.745700 0.292338
vt 0.754855 0.292315
vt 0.681634 0.292338
vt 0.672572 0.193197
vt 0.672571 0.166178
vt 0.672572 0.000000
vt 0.590276 0.027020
vt 0.590276 0.000000
vt 0.669514 0.663546
vt 0.671645 0.829720
vt 0.669513 0.829720
vt 0.745700 0.288034
vt 0.754855 0.287949
vt 0.663474 0.206196
vt 0.663474 0.193197
vt 0.672572 0.040039
vt 0.672572 0.027020
vt 0.662426 0.806346
vt 0.668863 0.972520
vt 0.662426 0.972520
vt 0.836215 0.331397
vt 0.900256 0.493728
vt 0.836215 0.497574
vt 0.507978 0.828967
vt 0.572020 0.666635
vt 0.572020 0.832812
vt 0.599405 0.193199
vt 0.745700 0.284283
vt 0.754855 0.284165
vt 0.681635 0.284282
vt 0.672572 0.206216
vt 0.663474 0.210500
vt 0.672572 0.044405
vt 0.590276 0.040038
vt 0.946351 0.663750
vt 0.998114 0.829923
vt 0.946293 0.829924
vt 0.754855 0.166176
vt 0.672572 0.210582
vt 0.590276 0.044405
vt 0.989521 0.493725
vt 0.987663 0.327551
vt 0.989521 0.327551
vt 0.672572 0.666622
vt 0.736614 0.828968
vt 0.672572 0.832799
vt 0.754395 0.829926
vt 0.818436 0.667581
vt 0.818436 0.833758
vt 0.599406 0.210502
vt 0.748399 0.806052
vt 0.736635 0.972217
vt 0.736614 0.806041
vt 0.617904 0.295095
vt 0.619827 0.295095
vt 0.891103 0.166176
vt 0.892957 0.189931
vt 0.891113 0.189931
vt 0.766180 0.497574
vt 0.754454 0.663749
vt 0.754395 0.497574
vt 0.818436 0.833823
vt 0.834277 0.998721
vt 0.818436 1.000000
vt 0.617889 0.265829
vt 0.617883 0.253687
vt 0.891125 0.219146
vt 0.892909 0.231267
vt 0.780687 0.663749
vt 0.780673 0.497574
vt 0.710217 0.832800
vt 0.711816 0.868492
vt 0.708391 0.868491
vt 0.864897 0.832580
vt 0.880747 0.846014
vt 0.864897 0.846051
vt 0.987663 0.328856
vt 0.971822 0.493728
vt 0.971822 0.327551
vt 0.622131 0.290098
vt 0.622143 0.292056
vt 0.708397 0.963149
vt 0.964353 0.363310
vt 0.841742 0.868331
vt 0.841742 0.962989
vt 0.702431 0.998976
vt 0.700156 0.963149
vt 0.703956 0.963149
vt 0.635714 0.265839
vt 0.632988 0.283469
vt 0.635728 0.253697
vt 0.633119 0.261012
vt 0.633120 0.260730
vt 0.625712 0.292661
vt 0.624421 0.292060
vt 0.626449 0.292064
vt 0.629528 0.287425
vt 0.629529 0.287704
vt 0.626443 0.287753
vt 0.626446 0.289763
vt 0.624414 0.290098
vt 0.624413 0.289763
vt 0.624160 0.290098
vt 0.624158 0.289764
vt 0.624167 0.292060
vt 0.624405 0.281141
vt 0.624150 0.281141
vt 0.626443 0.277511
vt 0.622128 0.289764
vt 0.624405 0.287757
vt 0.626446 0.283146
vt 0.626443 0.281137
vt 0.629524 0.283439
vt 0.624458 0.259325
vt 0.626451 0.258947
vt 0.626455 0.259334
vt 0.624162 0.259323
vt 0.624455 0.258937
vt 0.624470 0.261300
vt 0.624118 0.261299
vt 0.624149 0.257056
vt 0.624159 0.258936
vt 0.622110 0.259314
vt 0.629172 0.274715
vt 0.631227 0.274325
vt 0.631228 0.274715
vt 0.631506 0.274715
vt 0.633505 0.274326
vt 0.633507 0.274715
vt 0.631505 0.274325
vt 0.631234 0.276682
vt 0.631513 0.276682
vt 0.631499 0.272458
vt 0.629173 0.276684
vt 0.631204 0.265066
vt 0.631489 0.265066
vt 0.631221 0.272457
vt 0.631423 0.283456
vt 0.631144 0.283453
vt 0.624421 0.285443
vt 0.631423 0.289618
vt 0.632981 0.289629
vt 0.635679 0.295105
vt 0.624501 0.257057
vt 0.626439 0.257064
vt 0.631144 0.285369
vt 0.631423 0.285371
vt 0.631144 0.287437
vt 0.631423 0.285710
vt 0.631423 0.287439
vt 0.635697 0.279736
vt 0.632986 0.285723
vt 0.635711 0.268115
vt 0.709102 0.998976
vt 0.710228 0.998976
vt 0.707749 0.868491
vt 0.704484 0.963149
vt 0.704471 0.868491
vt 0.864897 0.859522
vt 0.880747 0.861758
vt 0.864897 0.861795
vt 0.703335 0.832800
vt 0.779546 0.497574
vt 0.773816 0.663749
vt 0.773791 0.497574
vt 0.891119 0.205273
vt 0.892926 0.216873
vt 0.891124 0.216873
vt 0.892941 0.203402
vt 0.891118 0.203402
vt 0.772863 0.497574
vt 0.766218 0.663749
vt 0.702407 0.832800
vt 0.700135 0.868491
vt 0.695724 0.832799
vt 0.703942 0.868491
vt 0.632983 0.287730
vt 0.635695 0.281610
vt 0.631145 0.289616
vt 0.631423 0.287718
vt 0.703357 0.998976
vt 0.880747 0.847885
vt 0.864897 0.847922
vt 0.880747 0.859485
vt 0.707756 0.963149
vt 0.892939 0.205273
vt 0.772890 0.663749
vt 0.632984 0.287452
vt 0.631145 0.287716
vt 0.880747 0.873879
vt 0.864897 0.873916
vt 0.711816 0.963150
vt 0.716230 0.998977
vt 0.631144 0.285708
vt 0.632986 0.285384
vt 0.629526 0.285695
vt 0.709090 0.832800
vt 0.779561 0.663749
vt 0.892923 0.219146
vt 0.631494 0.260733
vt 0.631210 0.258922
vt 0.631496 0.258921
vt 0.631491 0.263146
vt 0.631206 0.262872
vt 0.631491 0.262872
vt 0.633114 0.263145
vt 0.633115 0.262871
vt 0.631206 0.263147
vt 0.629617 0.262874
vt 0.631493 0.261014
vt 0.631208 0.260733
vt 0.631208 0.261015
vt 0.629617 0.260736
vt 0.624458 0.265882
vt 0.626451 0.265504
vt 0.626455 0.265892
vt 0.624162 0.265881
vt 0.624455 0.265495
vt 0.624470 0.267858
vt 0.624118 0.267856
vt 0.624149 0.263613
vt 0.624159 0.265493
vt 0.622110 0.265871
vt 0.629618 0.258926
vt 0.629617 0.265066
vt 0.622099 0.263605
vt 0.622119 0.261287
vt 0.626443 0.271460
vt 0.622107 0.265484
vt 0.619853 0.271461
vt 0.624414 0.283482
vt 0.624413 0.283147
vt 0.624160 0.283482
vt 0.624158 0.283147
vt 0.624167 0.285443
vt 0.622130 0.283481
vt 0.622128 0.283147
vt 0.495415 0.993020
vt 0.003629 0.508297
vt 0.495415 0.508302
vt 0.672572 0.000000
vt 0.590276 0.166177
vt 0.507978 0.000000
vt 0.507978 0.166177
vt 0.901048 0.998707
vt 0.585698 0.972474
vt 0.892259 0.663749
vt 0.964353 0.327551
vt 0.590418 0.497675
vt 0.823357 0.497576
vt 0.994206 0.000000
vt 0.681634 0.305334
vt 0.671645 0.663546
vt 0.668861 0.806346
vt 0.900256 0.327551
vt 0.507978 0.662790
vt 0.599405 0.206197
vt 0.681635 0.288034
vt 0.998114 0.663749
vt 0.987663 0.493725
vt 0.736614 0.662791
vt 0.754395 0.663749
vt 0.599406 0.214254
vt 0.748399 0.972228
vt 0.892984 0.166176
vt 0.834277 0.832544
vt 0.619845 0.277511
vt 0.617897 0.281600
vt 0.617896 0.279726
vt 0.617890 0.268106
vt 0.619850 0.271699
vt 0.619846 0.277236
vt 0.716230 0.832801
vt 0.880747 0.832544
vt 0.987662 0.495034
vt 0.622142 0.285439
vt 0.622116 0.281145
vt 0.622116 0.287762
vt 0.964353 0.457969
vt 0.695760 0.998975
vt 0.672529 0.602547
vt 0.672529 0.632316
vt 0.671762 0.625532
vt 0.633517 0.276679
vt 0.633494 0.272460
vt 0.633111 0.265066
vt 0.633124 0.258917
vt 0.629531 0.289604
vt 0.626446 0.290099
vt 0.626449 0.285447
vt 0.629526 0.285356
vt 0.624150 0.287758
vt 0.626446 0.283482
vt 0.622107 0.258927
vt 0.629172 0.274325
vt 0.629170 0.272454
vt 0.622099 0.257048
vt 0.629617 0.263148
vt 0.629617 0.261017
vt 0.624501 0.263614
vt 0.626439 0.263622
vt 0.626468 0.261312
vt 0.626468 0.267869
vt 0.622119 0.267844
vt 0.003629 0.993015
vt 0.590296 0.497572
vt 0.590296 0.332355
vt 0.672117 0.332355
vt 0.836215 0.332353
vt 0.836162 0.449862
vt 0.754448 0.449865
vt 0.672572 0.497571
vt 0.672626 0.392508
vt 0.754341 0.392508
vt 0.565944 0.662682
vt 0.565774 0.650443
vt 0.581091 0.650145
vt 0.507978 0.332354
vt 0.559724 0.332462
vt 0.559724 0.497464
vt 0.726641 0.662682
vt 0.727000 0.650363
vt 0.745462 0.650009
vt 0.608647 0.997815
vt 0.590296 0.997724
vt 0.590337 0.833077
vt 0.560000 0.497680
vt 0.560459 0.510110
vt 0.516713 0.510305
vt 0.589786 0.662790
vt 0.580925 0.510231
vt 0.508031 0.545281
vt 0.516717 0.544911
vt 0.516713 0.650057
vt 0.572020 0.806300
vt 0.578984 0.806300
vt 0.578919 0.970973
vt 0.672627 0.636249
vt 0.681365 0.636003
vt 0.681368 0.649934
vt 0.724305 0.497680
vt 0.725280 0.510000
vt 0.681368 0.510426
vt 0.754373 0.662791
vt 0.745626 0.510339
vt 0.824318 0.000174
vt 0.893608 0.000000
vt 0.893601 0.164816
vt 0.907642 0.497574
vt 0.907699 0.662942
vt 0.892432 0.662689
vt 0.910903 0.497831
vt 0.910898 0.663002
vt 0.730535 0.497680
vt 0.754373 0.497573
vt 0.565955 0.332462
vt 0.589801 0.332354
vt 0.589801 0.497572
vt 0.561955 0.662682
vt 0.562511 0.650250
vt 0.736614 0.669644
vt 0.751499 0.662791
vt 0.751499 0.806041
vt 0.586952 0.662790
vt 0.586952 0.806300
vt 0.572020 0.799417
vt 0.824318 0.165366
vt 0.754869 0.164765
vt 0.754990 0.000121
vt 0.559714 0.662682
vt 0.560627 0.650250
vt 0.912787 0.497828
vt 0.912780 0.663000
vt 0.730360 0.510041
vt 0.727161 0.510000
vt 0.561966 0.332462
vt 0.565955 0.497464
vt 0.562049 0.497680
vt 0.589786 0.497572
vt 0.610463 0.832643
vt 0.610767 0.997815
vt 0.724591 0.662682
vt 0.725336 0.650363
vt 0.672626 0.388368
vt 0.672572 0.332353
vt 0.754395 0.332353
vt 0.787423 0.332349
vt 0.787427 0.166177
vt 0.824368 0.167107
vt 0.956708 0.497852
vt 0.956708 0.662526
vt 0.507978 0.662790
vt 0.726546 0.497680
vt 0.561966 0.497464
vt 0.672572 0.662789
vt 0.654447 0.833038
vt 0.654520 0.997712
vt 0.562578 0.510112
vt 0.754341 0.388368
vt 0.889262 0.241265
vt 0.889326 0.166176
vt 0.890990 0.166184
vt 0.560569 0.584841
vt 0.956886 0.663481
vt 0.956708 0.497574
vt 0.993895 0.498345
vt 0.672627 0.623230
vt 0.681365 0.623499
vt 0.745317 0.623734
vt 0.508031 0.524112
vt 0.507978 0.497572
vt 0.836215 0.497571
vt 0.754395 0.497574
vt 0.754448 0.471034
vt 0.586958 0.827463
vt 0.586952 0.662790
vt 0.589337 0.662790
vt 0.672627 0.618864
vt 0.681365 0.618704
vt 0.516717 0.524367
vt 0.516717 0.536855
vt 0.836162 0.458012
vt 0.836162 0.471031
vt 0.748402 0.971258
vt 0.748399 0.806041
vt 0.754363 0.806041
vt 0.818437 0.828423
vt 0.818436 0.663749
vt 0.882364 0.667326
vt 0.590296 0.667968
vt 0.654224 0.663848
vt 0.654224 0.829066
vt 0.580671 0.524590
vt 0.672627 0.615080
vt 0.681365 0.615443
vt 0.745316 0.615678
vt 0.508031 0.537131
vt 0.516717 0.541670
vt 0.836162 0.453646
vt 0.754448 0.458016
vt 0.946522 0.997203
vt 0.946461 0.832530
vt 0.998533 0.832530
vt 0.672572 0.497571
vt 0.508031 0.541497
vt 0.754448 0.453649
vt 0.661044 0.971563
vt 0.661041 0.806346
vt 0.662426 0.806346
vt 0.882365 0.828423
vt 0.882364 0.663749
vt 0.946293 0.667312
vt 0.893608 0.004106
vt 0.957536 0.000000
vt 0.957536 0.165218
vt 0.580671 0.541893
vt 0.659521 0.497639
vt 0.671645 0.497573
vt 0.671645 0.662741
vt 0.560618 0.625768
vt 0.562704 0.626010
vt 0.889106 0.306539
vt 0.889198 0.281611
vt 0.891103 0.282113
vt 0.766916 0.332349
vt 0.754911 0.332273
vt 0.754855 0.167104
vt 0.695724 0.833010
vt 0.695724 0.998919
vt 0.679946 0.997907
vt 0.562718 0.596744
vt 0.562724 0.584602
vt 0.888607 0.252888
vt 0.891103 0.240778
vt 0.781410 0.332349
vt 0.781424 0.166177
vt 0.730473 0.997739
vt 0.728632 0.962605
vt 0.731873 0.962658
vt 0.507978 0.873158
vt 0.508613 0.860183
vt 0.523825 0.860220
vt 0.864897 0.998453
vt 0.849010 0.998689
vt 0.849117 0.833592
vt 0.558209 0.621001
vt 0.558194 0.622989
vt 0.728634 0.868277
vt 0.841742 0.963348
vt 0.672628 0.962603
vt 0.672572 0.868168
vt 0.722681 0.832955
vt 0.724192 0.868278
vt 0.720576 0.868226
vt 0.544835 0.596753
vt 0.544785 0.585125
vt 0.547358 0.614312
vt 0.547227 0.591929
vt 0.547226 0.591647
vt 0.554618 0.623592
vt 0.553884 0.622983
vt 0.555906 0.622989
vt 0.550807 0.618335
vt 0.553891 0.618675
vt 0.550808 0.618613
vt 0.553888 0.620671
vt 0.555915 0.620669
vt 0.555914 0.621004
vt 0.556169 0.620669
vt 0.556168 0.621004
vt 0.556160 0.622989
vt 0.555923 0.612042
vt 0.553823 0.608416
vt 0.556178 0.612041
vt 0.558211 0.620667
vt 0.555923 0.618681
vt 0.553886 0.614054
vt 0.550802 0.614244
vt 0.553863 0.612001
vt 0.555869 0.590246
vt 0.553862 0.590260
vt 0.553865 0.589872
vt 0.556165 0.590244
vt 0.555872 0.589858
vt 0.556208 0.592211
vt 0.555855 0.592211
vt 0.556177 0.587937
vt 0.556168 0.589856
vt 0.558229 0.590229
vt 0.551089 0.605642
vt 0.549098 0.605636
vt 0.549099 0.605246
vt 0.548820 0.605635
vt 0.546905 0.605631
vt 0.546906 0.605242
vt 0.548821 0.605246
vt 0.549094 0.607478
vt 0.548815 0.607475
vt 0.548826 0.603459
vt 0.551101 0.607507
vt 0.549128 0.596065
vt 0.549103 0.603456
vt 0.548843 0.596065
vt 0.548912 0.614249
vt 0.549191 0.614246
vt 0.555906 0.616366
vt 0.548909 0.620538
vt 0.544832 0.625512
vt 0.547349 0.620550
vt 0.555827 0.587945
vt 0.553886 0.587980
vt 0.549190 0.616282
vt 0.548911 0.616285
vt 0.549189 0.618351
vt 0.548910 0.618353
vt 0.548911 0.616624
vt 0.544852 0.610650
vt 0.544838 0.599030
vt 0.547343 0.616640
vt 0.729353 0.832953
vt 0.730478 0.832953
vt 0.727989 0.962605
vt 0.724711 0.962605
vt 0.724720 0.868278
vt 0.508613 0.846712
vt 0.508613 0.844439
vt 0.523825 0.844477
vt 0.723591 0.997741
vt 0.780282 0.332349
vt 0.774527 0.332349
vt 0.774554 0.166177
vt 0.888586 0.266760
vt 0.888604 0.255160
vt 0.891103 0.255171
vt 0.888583 0.268631
vt 0.891103 0.268642
vt 0.773599 0.332349
vt 0.766956 0.166176
vt 0.722663 0.997741
vt 0.716230 0.997897
vt 0.720559 0.962659
vt 0.724183 0.962605
vt 0.544855 0.612524
vt 0.547346 0.618647
vt 0.549188 0.620539
vt 0.548910 0.618632
vt 0.723608 0.832954
vt 0.508613 0.858312
vt 0.523825 0.858349
vt 0.523825 0.846749
vt 0.727993 0.868277
vt 0.891103 0.266771
vt 0.773628 0.166177
vt 0.547345 0.618369
vt 0.549189 0.618629
vt 0.507978 0.832812
vt 0.523864 0.832859
vt 0.736232 0.832799
vt 0.731870 0.868224
vt 0.549190 0.616621
vt 0.547341 0.616302
vt 0.550808 0.616604
vt 0.729346 0.997740
vt 0.780299 0.166177
vt 0.891103 0.252899
vt 0.548839 0.591650
vt 0.548836 0.589866
vt 0.549122 0.589867
vt 0.548841 0.594064
vt 0.548841 0.593789
vt 0.549126 0.593790
vt 0.547231 0.594062
vt 0.547231 0.593788
vt 0.549127 0.594064
vt 0.550700 0.593790
vt 0.548839 0.591931
vt 0.549124 0.591650
vt 0.549124 0.591932
vt 0.550701 0.591653
vt 0.555869 0.596803
vt 0.553861 0.596817
vt 0.553864 0.596429
vt 0.556165 0.596801
vt 0.555872 0.596415
vt 0.556209 0.598792
vt 0.555855 0.598786
vt 0.556177 0.594524
vt 0.556168 0.596414
vt 0.558228 0.596786
vt 0.550701 0.589892
vt 0.550693 0.596056
vt 0.558239 0.594519
vt 0.558218 0.592201
vt 0.553825 0.602393
vt 0.558231 0.596399
vt 0.560469 0.602381
vt 0.555915 0.614052
vt 0.555914 0.614387
vt 0.556169 0.614052
vt 0.556168 0.614387
vt 0.556160 0.616366
vt 0.558203 0.614050
vt 0.558200 0.614385
vt 0.495327 0.510239
vt 0.495327 0.991831
vt 0.004230 0.991832
vt 0.672117 0.497573
vt 0.754395 0.332357
vt 0.507978 0.497572
vt 0.608798 0.832642
vt 0.572021 0.970973
vt 0.824432 0.164816
vt 0.892320 0.497869
vt 0.824318 0.000000
vt 0.824313 0.332273
vt 0.993895 0.663518
vt 0.745317 0.635768
vt 0.589333 0.827463
vt 0.754361 0.971258
vt 0.882364 0.832544
vt 0.590296 0.832642
vt 0.580671 0.536632
vt 0.745316 0.618468
vt 0.998530 0.997203
vt 0.662426 0.971563
vt 0.946293 0.832530
vt 0.893608 0.168780
vt 0.580671 0.544689
vt 0.659299 0.663546
vt 0.890988 0.306547
vt 0.679836 0.832799
vt 0.560476 0.608422
vt 0.562711 0.612515
vt 0.562712 0.610641
vt 0.560464 0.602614
vt 0.562717 0.599021
vt 0.560468 0.608151
vt 0.736232 0.997904
vt 0.523864 0.873187
vt 0.864897 0.832544
vt 0.558192 0.616361
vt 0.558214 0.612043
vt 0.558209 0.618695
vt 0.841798 0.868913
vt 0.716260 0.832803
vt 0.590259 0.691963
vt 0.589337 0.669714
vt 0.590259 0.662790
vt 0.671819 0.524454
vt 0.671819 0.546791
vt 0.671706 0.526245
vt 0.546903 0.603426
vt 0.547170 0.596087
vt 0.547219 0.589855
vt 0.550804 0.620530
vt 0.553888 0.621007
vt 0.553883 0.616367
vt 0.550808 0.616265
vt 0.556178 0.618682
vt 0.553886 0.614390
vt 0.558231 0.589842
vt 0.551092 0.605249
vt 0.551102 0.603440
vt 0.547135 0.607399
vt 0.558237 0.587941
vt 0.550699 0.594065
vt 0.550701 0.591934
vt 0.555825 0.594524
vt 0.553877 0.594529
vt 0.553848 0.592221
vt 0.553827 0.598829
vt 0.558215 0.598782
vt 0.004230 0.510240
vt 0.590276 0.608359
vt 0.590276 0.608597
vt 0.589864 0.608592
vt 0.589864 0.608359
vt 0.671706 0.552843
vt 0.671706 0.546791
vt 0.672114 0.546801
vt 0.672114 0.552824
vt 0.671706 0.524454
vt 0.671711 0.511147
vt 0.672117 0.511024
vt 0.672117 0.524441
vt 0.590276 0.602546
vt 0.590276 0.602822
vt 0.589864 0.602822
vt 0.589864 0.602550
vt 0.827659 0.321008
vt 0.827659 0.322923
vt 0.827248 0.322923
vt 0.827250 0.320933
vt 0.826014 0.330528
vt 0.826015 0.327256
vt 0.826421 0.327256
vt 0.826421 0.330511
vt 0.827659 0.325041
vt 0.827659 0.323141
vt 0.828071 0.323141
vt 0.828071 0.325058
vt 0.589866 0.643971
vt 0.589866 0.640825
vt 0.590278 0.640825
vt 0.590278 0.643974
vt 0.828479 0.327071
vt 0.828479 0.325258
vt 0.828889 0.325259
vt 0.828889 0.327050
vt 0.826425 0.306682
vt 0.826425 0.309898
vt 0.826014 0.309898
vt 0.826015 0.306709
vt 0.827659 0.318963
vt 0.827659 0.320881
vt 0.827248 0.320881
vt 0.827249 0.318891
vt 0.590277 0.637549
vt 0.590278 0.640825
vt 0.589868 0.640825
vt 0.589872 0.637446
vt 0.827248 0.325151
vt 0.827248 0.327161
vt 0.826837 0.327161
vt 0.826837 0.325165
vt 0.827248 0.310665
vt 0.827248 0.308708
vt 0.827659 0.308708
vt 0.827659 0.310696
vt 0.671711 0.510896
vt 0.671706 0.497573
vt 0.672117 0.497588
vt 0.672117 0.511024
vt 0.826833 0.330467
vt 0.826833 0.332350
vt 0.826421 0.332352
vt 0.826422 0.330460
vt 0.672114 0.577847
vt 0.672114 0.581987
vt 0.671703 0.581991
vt 0.671703 0.577832
vt 0.828069 0.306682
vt 0.828069 0.308656
vt 0.827659 0.308655
vt 0.827658 0.306683
vt 0.824780 0.314822
vt 0.824779 0.310786
vt 0.825191 0.310788
vt 0.825191 0.314841
vt 0.828063 0.329220
vt 0.828065 0.327256
vt 0.828283 0.327452
vt 0.828464 0.329220
vt 0.589866 0.616900
vt 0.589868 0.612739
vt 0.590273 0.612846
vt 0.590273 0.616900
vt 0.828464 0.329126
vt 0.828464 0.327256
vt 0.828872 0.327314
vt 0.828872 0.329124
vt 0.825600 0.310722
vt 0.825600 0.314752
vt 0.825196 0.314603
vt 0.825191 0.310721
vt 0.828068 0.310721
vt 0.828068 0.312686
vt 0.827657 0.312697
vt 0.827657 0.310721
vt 0.827244 0.318850
vt 0.827244 0.316847
vt 0.827655 0.316877
vt 0.827655 0.318850
vt 0.589866 0.633340
vt 0.589866 0.629252
vt 0.590278 0.629234
vt 0.590278 0.633340
vt 0.590278 0.625125
vt 0.590278 0.629233
vt 0.589866 0.629234
vt 0.589866 0.625131
vt 0.824779 0.310786
vt 0.824779 0.314890
vt 0.824368 0.314877
vt 0.824368 0.310786
vt 0.589866 0.637446
vt 0.589866 0.633341
vt 0.590278 0.633341
vt 0.590278 0.637433
vt 0.672118 0.640517
vt 0.672118 0.636422
vt 0.672529 0.636422
vt 0.672529 0.640505
vt 0.590278 0.616900
vt 0.590278 0.621014
vt 0.589866 0.621002
vt 0.589866 0.616900
vt 0.827652 0.329264
vt 0.827652 0.331270
vt 0.827241 0.331252
vt 0.827241 0.329263
vt 0.827659 0.325199
vt 0.827659 0.327161
vt 0.827248 0.327161
vt 0.827248 0.325175
vt 0.672114 0.594441
vt 0.672115 0.598539
vt 0.671703 0.598539
vt 0.671703 0.594417
vt 0.672115 0.590293
vt 0.672115 0.594392
vt 0.671703 0.594417
vt 0.671703 0.590293
vt 0.827248 0.325126
vt 0.827248 0.323165
vt 0.827659 0.323141
vt 0.827659 0.325126
vt 0.827655 0.314841
vt 0.827655 0.316847
vt 0.827244 0.316847
vt 0.827244 0.314860
vt 0.828063 0.327256
vt 0.828063 0.329233
vt 0.827652 0.329218
vt 0.827652 0.327257
vt 0.825191 0.318896
vt 0.825191 0.322928
vt 0.824780 0.322949
vt 0.824779 0.318896
vt 0.828479 0.312793
vt 0.828479 0.314672
vt 0.828068 0.314694
vt 0.828068 0.312793
vt 0.824780 0.327171
vt 0.824779 0.323141
vt 0.825191 0.323141
vt 0.825191 0.327194
vt 0.825602 0.323141
vt 0.825602 0.327055
vt 0.825191 0.327062
vt 0.825191 0.323143
vt 0.828066 0.314841
vt 0.828066 0.316817
vt 0.827655 0.316815
vt 0.827655 0.314850
vt 0.828063 0.331268
vt 0.828064 0.329387
vt 0.828475 0.329357
vt 0.828475 0.331270
vt 0.672118 0.636424
vt 0.672118 0.640459
vt 0.671706 0.640482
vt 0.671706 0.636422
vt 0.672114 0.552866
vt 0.672114 0.557010
vt 0.671703 0.557011
vt 0.671703 0.552843
vt 0.672114 0.557011
vt 0.672114 0.561155
vt 0.671703 0.561177
vt 0.671703 0.557011
vt 0.827660 0.322886
vt 0.827659 0.321006
vt 0.828071 0.321004
vt 0.828071 0.322923
vt 0.827657 0.314768
vt 0.827657 0.312793
vt 0.828068 0.312800
vt 0.828068 0.314766
vt 0.828067 0.325191
vt 0.828067 0.327160
vt 0.827659 0.327161
vt 0.827661 0.325296
vt 0.825191 0.331289
vt 0.825191 0.327249
vt 0.825593 0.327422
vt 0.825602 0.331289
vt 0.827235 0.330460
vt 0.827233 0.332326
vt 0.826833 0.332326
vt 0.826833 0.330510
vt 0.825602 0.306682
vt 0.825602 0.310721
vt 0.825191 0.310721
vt 0.825200 0.306855
vt 0.825598 0.314841
vt 0.825598 0.318890
vt 0.825191 0.318891
vt 0.825370 0.315505
vt 0.828071 0.318915
vt 0.828071 0.320881
vt 0.827659 0.320881
vt 0.827664 0.319042
vt 0.828482 0.321055
vt 0.828482 0.322923
vt 0.828073 0.322842
vt 0.828071 0.321055
vt 0.590273 0.608597
vt 0.590273 0.612739
vt 0.589864 0.612738
vt 0.589867 0.608701
vt 0.672115 0.581991
vt 0.672115 0.586143
vt 0.671703 0.586143
vt 0.671708 0.582121
vt 0.672115 0.586143
vt 0.672115 0.590293
vt 0.671708 0.590168
vt 0.671703 0.586143
vt 0.828070 0.308729
vt 0.828070 0.310696
vt 0.827664 0.310571
vt 0.827659 0.308729
vt 0.828482 0.323141
vt 0.828482 0.325009
vt 0.828071 0.325009
vt 0.828072 0.323219
vt 0.827241 0.327256
vt 0.827241 0.330415
vt 0.826831 0.330395
vt 0.826834 0.327256
vt 0.826835 0.312757
vt 0.826835 0.310842
vt 0.827241 0.310721
vt 0.827246 0.312757
vt 0.826014 0.322155
vt 0.826014 0.318896
vt 0.826425 0.318891
vt 0.826425 0.322154
vt 0.826839 0.314677
vt 0.826835 0.312761
vt 0.827246 0.312757
vt 0.827246 0.314794
vt 0.828479 0.312697
vt 0.828479 0.310968
vt 0.828891 0.310968
vt 0.828891 0.312697
vt 0.828481 0.320731
vt 0.828481 0.319001
vt 0.828893 0.319001
vt 0.828893 0.320731
vt 0.828892 0.306682
vt 0.828892 0.308412
vt 0.828481 0.308412
vt 0.828481 0.306682
vt 0.826425 0.309850
vt 0.826425 0.306695
vt 0.826837 0.306682
vt 0.826837 0.309850
vt 0.826423 0.310721
vt 0.826423 0.313989
vt 0.826011 0.313989
vt 0.826012 0.310721
vt 0.828067 0.327159
vt 0.828067 0.325261
vt 0.828479 0.325258
vt 0.828479 0.327161
vt 0.828066 0.316810
vt 0.828067 0.314911
vt 0.828478 0.314911
vt 0.828478 0.316817
vt 0.828477 0.316873
vt 0.828477 0.318772
vt 0.828066 0.318782
vt 0.828066 0.316873
vt 0.825602 0.309946
vt 0.825602 0.306682
vt 0.826014 0.306682
vt 0.826014 0.309953
vt 0.826425 0.326300
vt 0.826425 0.323149
vt 0.826837 0.323141
vt 0.826837 0.326300
vt 0.828479 0.314523
vt 0.828479 0.312793
vt 0.828890 0.312793
vt 0.828890 0.314525
vt 0.826010 0.318110
vt 0.826010 0.314846
vt 0.826421 0.314841
vt 0.826421 0.318110
vt 0.826837 0.318901
vt 0.826837 0.322053
vt 0.826425 0.322053
vt 0.826425 0.318891
vt 0.826837 0.320912
vt 0.826837 0.318996
vt 0.827245 0.318891
vt 0.827248 0.320912
vt 0.826423 0.313877
vt 0.826423 0.310721
vt 0.826835 0.310721
vt 0.826835 0.313893
vt 0.826014 0.323141
vt 0.826014 0.326410
vt 0.825602 0.326409
vt 0.825602 0.323141
vt 0.825191 0.322179
vt 0.825191 0.318891
vt 0.825602 0.318911
vt 0.825602 0.322178
vt 0.828477 0.318684
vt 0.828478 0.316873
vt 0.828889 0.316900
vt 0.828889 0.318684
vt 0.826831 0.327256
vt 0.826831 0.330460
vt 0.826422 0.330417
vt 0.826421 0.327256
vt 0.828889 0.315006
vt 0.828889 0.316817
vt 0.828478 0.316817
vt 0.828478 0.315033
vt 0.589866 0.647810
vt 0.589866 0.645954
vt 0.590278 0.645954
vt 0.590278 0.647809
vt 0.826014 0.318891
vt 0.826014 0.322171
vt 0.825602 0.322171
vt 0.825602 0.318918
vt 0.672529 0.640517
vt 0.672529 0.643725
vt 0.672118 0.643696
vt 0.672118 0.640517
vt 0.826014 0.330529
vt 0.826014 0.332339
vt 0.825603 0.332290
vt 0.825602 0.330528
vt 0.826010 0.314841
vt 0.826010 0.318125
vt 0.825598 0.318125
vt 0.825598 0.314869
vt 0.826425 0.323141
vt 0.826425 0.326353
vt 0.826014 0.326326
vt 0.826014 0.323141
vt 0.828475 0.331216
vt 0.828475 0.329357
vt 0.828885 0.329357
vt 0.828885 0.331217
vt 0.672118 0.647563
vt 0.672118 0.645705
vt 0.672529 0.645705
vt 0.672529 0.647563
vt 0.671706 0.647536
vt 0.671706 0.645678
vt 0.672117 0.645678
vt 0.672117 0.647536
vt 0.672118 0.640482
vt 0.672118 0.643693
vt 0.671706 0.643693
vt 0.671706 0.640509
vt 0.825600 0.314004
vt 0.825600 0.310721
vt 0.826011 0.310748
vt 0.826011 0.314004
vt 0.826837 0.308704
vt 0.826840 0.306783
vt 0.827247 0.306682
vt 0.827247 0.308708
vt 0.827657 0.310803
vt 0.827657 0.312722
vt 0.827246 0.312722
vt 0.827248 0.310721
vt 0.827657 0.312793
vt 0.827657 0.314712
vt 0.827248 0.314794
vt 0.827246 0.312793
vt 0.826833 0.314841
vt 0.826833 0.318049
vt 0.826421 0.318049
vt 0.826421 0.314873
vt 0.825602 0.330528
vt 0.825602 0.327249
vt 0.826014 0.327277
vt 0.826014 0.330528
vt 0.828068 0.312681
vt 0.828068 0.310799
vt 0.828479 0.310796
vt 0.828479 0.312697
vt 0.671703 0.573653
vt 0.671703 0.569512
vt 0.672114 0.569509
vt 0.672114 0.573672
vt 0.827244 0.316917
vt 0.827244 0.318891
vt 0.826833 0.318890
vt 0.826833 0.316894
vt 0.824370 0.327133
vt 0.824368 0.323097
vt 0.824779 0.323099
vt 0.824779 0.327194
vt 0.826837 0.310720
vt 0.826837 0.308743
vt 0.827248 0.308708
vt 0.827248 0.310719
vt 0.825191 0.306682
vt 0.825191 0.310714
vt 0.824780 0.310738
vt 0.824779 0.306682
vt 0.828071 0.320881
vt 0.828071 0.319002
vt 0.828481 0.319001
vt 0.828481 0.320881
vt 0.824780 0.318872
vt 0.824779 0.314841
vt 0.825191 0.314842
vt 0.825191 0.318896
vt 0.671703 0.602478
vt 0.671703 0.598564
vt 0.672115 0.598539
vt 0.672115 0.602473
vt 0.672117 0.643702
vt 0.672117 0.645678
vt 0.671706 0.645676
vt 0.671706 0.643693
vt 0.828069 0.308572
vt 0.828069 0.306692
vt 0.828481 0.306682
vt 0.828481 0.308574
vt 0.824779 0.331289
vt 0.824780 0.327254
vt 0.825191 0.327238
vt 0.825191 0.331289
vt 0.671703 0.565323
vt 0.671703 0.561178
vt 0.672114 0.561177
vt 0.672114 0.565344
vt 0.672114 0.565344
vt 0.672114 0.569488
vt 0.671703 0.569509
vt 0.671703 0.565344
vt 0.828070 0.310611
vt 0.828070 0.308730
vt 0.828482 0.308729
vt 0.828482 0.310618
vt 0.827247 0.308674
vt 0.827247 0.306699
vt 0.827658 0.306682
vt 0.827658 0.308673
vt 0.827244 0.314885
vt 0.827244 0.316894
vt 0.826833 0.316894
vt 0.826833 0.314841
vt 0.827655 0.318830
vt 0.827655 0.316873
vt 0.828066 0.316873
vt 0.828066 0.318850
vt 0.827652 0.331270
vt 0.827652 0.329304
vt 0.828063 0.329292
vt 0.828063 0.331270
vt 0.827241 0.329263
vt 0.827241 0.327261
vt 0.827652 0.327256
vt 0.827652 0.329263
vt 0.824368 0.323097
vt 0.824368 0.319008
vt 0.824779 0.318994
vt 0.824779 0.323097
vt 0.589866 0.625121
vt 0.589866 0.621014
vt 0.590278 0.621015
vt 0.590278 0.625125
vt 0.824368 0.318994
vt 0.824368 0.314890
vt 0.824779 0.314899
vt 0.824779 0.318994
vt 0.671706 0.636421
vt 0.671706 0.632316
vt 0.672118 0.632316
vt 0.672118 0.636413
vt 0.824368 0.331289
vt 0.824368 0.327194
vt 0.824779 0.327194
vt 0.824779 0.331279
vt 0.671703 0.577832
vt 0.671703 0.573718
vt 0.672113 0.573672
vt 0.672114 0.577832
vt 0.826837 0.325151
vt 0.826837 0.323145
vt 0.827248 0.323141
vt 0.827248 0.325151
vt 0.589866 0.645936
vt 0.589866 0.643974
vt 0.590278 0.643974
vt 0.590278 0.645954
vt 0.824368 0.310780
vt 0.824368 0.306682
vt 0.824779 0.306682
vt 0.824779 0.310786
vt 0.672118 0.636422
vt 0.672118 0.632323
vt 0.672529 0.632316
vt 0.672529 0.636422
vt 0.672118 0.645705
vt 0.672118 0.643743
vt 0.672529 0.643725
vt 0.672529 0.645705
vt 0.826837 0.322918
vt 0.826837 0.320912
vt 0.827248 0.320912
vt 0.827248 0.322923
vt 0.147741 0.756923
vt 0.147741 0.989338
vt 0.146201 0.989338
vt 0.146201 0.756923
vt 0.045003 0.756802
vt 0.045003 0.508108
vt 0.046524 0.508108
vt 0.046524 0.756802
vt 0.045003 0.986348
vt 0.046524 0.986348
vt 0.146201 0.756923
vt 0.146201 0.505118
vt 0.147741 0.505118
vt 0.147741 0.756923
vn 0.0000 -1.0000 -0.0000
vn 0.0000 1.0000 0.0000
vn 1.0000 -0.0000 0.0000
vn 0.0000 0.0000 1.0000
vn -1.0000 0.0000 -0.0000
vn 0.0000 0.0000 -1.0000
vn -1.0000 -0.0000 0.0077
vn -0.0000 -1.0000 0.0046
vn -0.0000 1.0000 0.0046
vn 1.0000 -0.0000 0.0077
vn -0.1371 -0.9905 -0.0035
vn -0.0015 1.0000 0.0084
vn 0.0005 1.0000 -0.0089
vn 0.0000 -0.0046 -1.0000
vn -1.0000 -0.0000 -0.0002
vn 0.0000 0.0046 1.0000
vn 1.0000 0.0000 0.0002
vn -0.0016 1.0000 -0.0004
vn 0.0006 1.0000 -0.0002
vn 1.0000 0.0005 0.0005
vn 0.0006 1.0000 0.0068
vn -0.0005 0.3365 0.9417
vn -0.0000 -0.0062 -1.0000
vn -1.0000 -0.0005 -0.0051
vn -0.0013 0.0113 0.9999
vn -0.0016 1.0000 -0.0073
vn -0.7337 0.6795 -0.0061
vn 0.7334 0.6798 -0.0057
vn 0.0002 0.3351 -0.9422
vn -0.0000 0.0039 1.0000
vn 0.0002 0.0138 0.9999
vn 0.0030 0.0045 1.0000
vn -0.0007 0.0082 1.0000
vn -0.0011 0.0047 1.0000
vn -0.0017 0.0049 1.0000
vn -0.0014 0.0047 1.0000
vn -0.0008 0.0070 1.0000
vn 0.0051 0.0048 1.0000
vn 0.0014 0.0045 1.0000
vn 0.0008 0.0045 1.0000
vn 0.0004 0.0035 1.0000
vn 0.0005 0.0046 1.0000
vn 0.0007 0.0045 1.0000
vn 0.0008 0.0050 1.0000
vn -0.0001 0.0050 1.0000
vn 0.0007 0.0050 1.0000
vn 0.0007 0.0056 1.0000
vn 0.0007 0.0049 1.0000
vn 0.0015 -0.0309 0.9995
vn 0.0145 0.0064 0.9999
vn -0.0214 0.0072 0.9997
vn 0.0020 0.0049 1.0000
vn 0.0010 0.0060 1.0000
vn -0.0045 0.0050 1.0000
vn -0.0001 0.0069 1.0000
vn -0.0002 0.0065 1.0000
vn -0.0000 0.0040 1.0000
vn -0.0016 1.0000 -0.0055
vn 0.0006 1.0000 0.0050
vn 0.0006 1.0000 0.0029
vn -0.0016 1.0000 -0.0035
vn -0.0000 0.0042 1.0000
vn -0.0002 0.0060 1.0000
vn 0.0006 1.0000 0.0047
vn -0.0016 1.0000 -0.0053
vn -0.0002 0.0064 1.0000
vn 0.0003 0.0064 1.0000
vn -0.0002 0.0069 1.0000
vn 0.0003 0.0069 1.0000
vn -0.0016 1.0000 -0.0070
vn 0.0006 1.0000 0.0065
vn 0.0002 0.0064 1.0000
vn 0.0013 -0.0014 1.0000
vn 0.0013 -0.0020 1.0000
vn -0.0000 0.0043 1.0000
vn 0.0020 0.0035 1.0000
vn 0.0001 0.0104 0.9999
vn -0.1369 -0.9906 -0.0011
vn 0.0006 0.9998 0.0182
vn -0.0016 0.9998 -0.0186
vn 0.0005 1.0000 -0.0035
vn -0.0015 1.0000 0.0029
vn -0.0000 0.0100 0.9999
vn -0.0013 0.0065 1.0000
vn 0.0025 0.0017 1.0000
vn 0.0003 0.0024 1.0000
vn -0.0975 0.8252 0.5563
vn 0.0003 0.0541 0.9985
vn 0.0129 -0.0290 0.9995
vn 0.0002 0.0139 0.9999
vn -0.0008 0.0082 1.0000
vn 0.0015 0.0080 1.0000
vn -0.0007 0.0069 1.0000
vn -0.0008 0.0047 1.0000
vn -0.0011 0.0045 1.0000
vn -0.0026 0.0049 1.0000
vn -0.0020 0.0053 1.0000
vn -0.0011 0.0049 1.0000
vn -0.0017 -0.0301 0.9995
vn -0.0216 -0.0051 0.9998
vn 0.0008 0.0046 1.0000
vn 0.0007 0.0046 1.0000
vn 0.0006 0.0045 1.0000
vn 0.0004 0.0041 1.0000
vn 0.0015 0.0049 1.0000
vn 0.0008 0.0049 1.0000
vn 0.0008 0.0043 1.0000
vn -0.0000 -0.0295 0.9996
vn 0.0015 -0.0283 0.9996
vn 0.0146 0.0064 0.9999
vn 0.0152 0.0044 0.9999
vn 0.0146 0.0044 0.9999
vn 0.0139 0.0044 0.9999
vn -0.0209 0.0056 0.9998
vn -0.0215 0.0056 0.9998
vn -0.0220 0.0056 0.9997
vn -0.0215 0.0072 0.9997
vn 0.0025 0.0049 1.0000
vn 0.0021 0.0045 1.0000
vn 0.0020 0.0045 1.0000
vn 0.0015 0.0045 1.0000
vn 0.0021 0.0049 1.0000
vn 0.0006 0.0062 1.0000
vn 0.0004 0.0062 1.0000
vn 0.0027 0.0060 1.0000
vn 0.0015 0.0065 1.0000
vn -0.0049 0.0049 1.0000
vn -0.0016 0.0062 1.0000
vn -0.0062 0.0041 1.0000
vn 0.0050 0.0064 1.0000
vn 0.0103 0.0028 0.9999
vn -0.0002 0.0073 1.0000
vn 0.0003 0.0035 1.0000
vn 0.0005 1.0000 -0.0070
vn -0.0015 1.0000 0.0065
vn -0.0015 1.0000 0.0047
vn 0.0005 1.0000 -0.0053
vn 0.0003 0.0049 1.0000
vn -0.0015 1.0000 0.0050
vn 0.0005 1.0000 -0.0055
vn 0.0003 0.0037 1.0000
vn -0.0007 0.0065 1.0000
vn 0.0003 0.0025 1.0000
vn 0.0005 1.0000 -0.0073
vn -0.0015 1.0000 0.0068
vn 0.0003 -0.0022 1.0000
vn -0.0018 -0.0018 1.0000
vn 0.0003 -0.0010 1.0000
vn 0.0003 -0.0013 1.0000
vn 0.0010 -0.0011 1.0000
vn 0.0009 -0.0014 1.0000
vn 0.0152 -0.0117 0.9998
vn 0.0028 -0.0279 0.9996
vn 0.0009 -0.0019 1.0000
vn 0.0010 -0.0019 1.0000
vn -0.0008 0.0035 1.0000
vn -0.0009 0.0041 1.0000
vn -0.0019 0.0051 1.0000
vn -0.0008 0.0049 1.0000
vn 0.0025 0.0042 1.0000
vn 0.0035 0.0053 1.0000
vn 0.0050 0.0043 1.0000
vn -0.0000 0.0106 0.9999
vn 0.0001 0.0103 0.9999
vn 0.0001 0.0107 0.9999
vn 0.0001 0.0108 0.9999
vn -0.0001 0.0103 0.9999
vn -0.0006 -1.0000 -0.0000
vn -1.0000 0.0016 -0.0000
vn 0.0014 0.0014 -1.0000
vn 1.0000 0.0016 0.0000
vn -0.0020 0.0018 1.0000
vn 1.0000 -0.0051 -0.0078
vn 0.0006 -0.0001 -1.0000
vn -0.0001 -0.0016 -1.0000
vn -0.0000 0.0014 -1.0000
vn -0.0003 1.0000 -0.0046
vn -0.0000 0.0014 1.0000
vn 0.0019 -0.0007 1.0000
vn -0.0001 -0.0024 1.0000
vn 0.0015 -1.0000 -0.0046
vn -0.9999 -0.0152 -0.0077
vn -0.9989 0.0459 0.0068
vn -0.0012 -0.0003 1.0000
vn 1.0000 -0.0035 0.0000
vn -0.0006 0.0000 -1.0000
vn 0.0001 -0.0013 -1.0000
vn 0.0001 -0.0013 1.0000
vn 0.1378 0.9905 0.0035
vn -1.0000 0.0003 0.0071
vn 0.0014 0.0015 1.0000
vn 0.0019 -0.0003 -1.0000
vn 1.0000 -0.0004 0.0070
vn -0.0019 0.0000 1.0000
vn -1.0000 -0.0030 0.0000
vn 0.0036 -1.0000 -0.0084
vn -1.0000 0.0034 -0.0078
vn -0.0019 0.0002 -1.0000
vn 0.0019 0.0000 1.0000
vn 0.0019 0.0002 1.0000
vn 1.0000 0.0035 -0.0078
vn 0.0006 0.0000 -1.0000
vn 0.0010 0.0001 -1.0000
vn 0.0001 0.0000 -1.0000
vn 0.0005 -0.9999 0.0168
vn 0.0004 0.0019 -1.0000
vn 0.0026 -1.0000 0.0000
vn 0.0000 1.0000 -0.0040
vn -1.0000 0.0029 -0.0006
vn 1.0000 0.0027 0.0003
vn 0.0000 -0.0049 -1.0000
vn 0.0000 1.0000 -0.0046
vn -0.0001 0.0022 1.0000
vn -1.0000 0.0029 -0.0009
vn 1.0000 0.0027 0.0004
vn 0.0004 -1.0000 0.0051
vn -0.0003 -0.0058 -1.0000
vn -0.0031 0.0048 -1.0000
vn -0.0102 -0.9999 0.0050
vn -0.9998 -0.0139 0.0158
vn -0.0000 -0.0056 -1.0000
vn -0.0036 0.0035 -1.0000
vn -0.0006 -1.0000 -0.0068
vn 0.0039 -0.3378 -0.9412
vn -0.0036 0.0030 1.0000
vn 1.0000 0.0001 0.0049
vn 0.0013 -0.0131 -0.9999
vn 0.0093 -0.9999 0.0073
vn 0.7306 -0.6828 0.0054
vn -0.7311 -0.6822 0.0058
vn -0.0032 -0.3371 0.9414
vn 0.0014 -0.0076 -1.0000
vn -0.0002 -0.0054 -1.0000
vn -0.0030 -0.0045 -1.0000
vn 0.0007 -0.0082 -1.0000
vn 0.0011 -0.0047 -1.0000
vn 0.0020 -0.0049 -1.0000
vn 0.0014 -0.0047 -1.0000
vn 0.0010 -0.0068 -1.0000
vn -0.0077 -0.0051 -1.0000
vn -0.0014 -0.0045 -1.0000
vn -0.0008 -0.0045 -1.0000
vn -0.0004 -0.0035 -1.0000
vn -0.0004 -0.0046 -1.0000
vn -0.0007 -0.0045 -1.0000
vn -0.0008 -0.0054 -1.0000
vn 0.0000 -0.0043 -1.0000
vn -0.0007 -0.0050 -1.0000
vn -0.0012 -0.0055 -1.0000
vn -0.0004 -0.0049 -1.0000
vn -0.0020 0.0312 -0.9995
vn -0.0145 -0.0064 -0.9999
vn 0.0214 -0.0072 -0.9997
vn -0.0020 -0.0049 -1.0000
vn -0.0066 -0.0060 -1.0000
vn 0.0073 -0.0050 -1.0000
vn 0.0006 -0.0069 -1.0000
vn 0.0002 -0.0065 -1.0000
vn -0.0000 -0.0001 -1.0000
vn -0.0002 -0.3380 0.9411
vn 0.0016 -1.0000 0.0055
vn 0.0000 0.0030 1.0000
vn 0.0005 -0.3390 -0.9408
vn -0.0006 -1.0000 -0.0050
vn 0.0000 0.0170 -0.9999
vn 0.0024 0.0168 -0.9999
vn -0.0006 -1.0000 -0.0029
vn -0.0019 -0.3379 -0.9412
vn -0.0053 -1.0000 0.0035
vn -0.0011 0.0019 -1.0000
vn 0.0002 -0.0060 -1.0000
vn 0.0000 0.0168 -0.9999
vn -0.0006 -1.0000 -0.0047
vn 0.0006 -0.3390 -0.9408
vn 0.0015 -1.0000 0.0053
vn -0.0000 -0.0002 -1.0000
vn 0.0002 -0.0064 -1.0000
vn -0.0003 -0.0064 -1.0000
vn 0.0039 0.0014 1.0000
vn 0.0024 -0.3367 0.9416
vn 0.0001 -0.0069 -1.0000
vn -0.0003 -0.0069 -1.0000
vn 0.0002 -0.0069 -1.0000
vn 0.0016 -1.0000 0.0070
vn -0.0006 -1.0000 -0.0065
vn -0.0002 -0.0064 -1.0000
vn -0.0004 -0.0064 -1.0000
vn -0.0005 -0.0046 -1.0000
vn -0.0013 0.0014 -1.0000
vn -0.0013 0.0020 -1.0000
vn -0.0022 -0.0035 -1.0000
vn -0.0001 -0.0104 -0.9999
vn -0.0012 -0.0003 -1.0000
vn 0.0019 -0.0003 1.0000
vn 0.9999 -0.0149 0.0069
vn 0.0019 0.0002 -1.0000
vn 0.0000 -0.0024 -1.0000
vn -0.0001 0.0022 -1.0000
vn 0.0003 1.0000 -0.0040
vn 0.0004 0.0019 1.0000
vn -0.0019 0.0002 1.0000
vn -0.0000 -0.0017 1.0000
vn -0.9999 -0.0151 -0.0078
vn -0.9999 -0.0100 -0.0077
vn 0.0014 0.0014 1.0000
vn 0.0015 -0.0060 -1.0000
vn 0.1375 0.9905 0.0011
vn -1.0000 -0.0001 0.0071
vn 0.0006 0.0004 -1.0000
vn 1.0000 0.0003 0.0071
vn -0.0019 -0.0001 1.0000
vn 0.0025 -0.9999 -0.0135
vn -0.9999 0.0076 0.0071
vn -0.0006 -0.0001 -1.0000
vn -0.0019 -0.0007 1.0000
vn 0.9999 0.0076 0.0068
vn 0.0012 0.0045 -1.0000
vn -0.0001 -0.0056 -1.0000
vn 0.0019 -0.9997 0.0234
vn -1.0000 0.0027 0.0001
vn 1.0000 0.0029 -0.0005
vn -1.0000 0.0027 -0.0001
vn 1.0000 0.0029 -0.0004
vn -0.0036 -0.9999 0.0114
vn 0.0003 -0.0000 -1.0000
vn -0.0036 -0.0000 -1.0000
vn -0.0050 -1.0000 -0.0030
vn -1.0000 -0.0010 -0.0011
vn -0.0004 -0.0076 -1.0000
vn -0.0000 -0.0058 -1.0000
vn -0.0000 -0.0081 -1.0000
vn -0.0000 -0.0080 -1.0000
vn 0.0003 -0.0083 -1.0000
vn 0.0004 -0.0073 -1.0000
vn -0.0002 -0.0082 -1.0000
vn 0.0015 -1.0000 -0.0084
vn 0.0032 -0.3377 -0.9413
vn -0.0011 0.0014 1.0000
vn 0.9997 -0.0125 0.0211
vn -0.0003 -0.0110 -0.9999
vn 0.0013 -0.0065 -1.0000
vn -0.0025 -0.0044 -1.0000
vn 0.0014 -0.0133 -0.9999
vn 0.0013 -0.0132 -0.9999
vn 0.0072 -0.9999 0.0089
vn 0.7310 -0.6824 0.0060
vn -0.7303 -0.6831 0.0046
vn -0.0025 -0.3369 0.9415
vn -0.0000 0.0001 -1.0000
vn 0.0405 -0.3520 -0.9351
vn -0.0440 0.3775 0.9249
vn -0.0002 -0.0470 -0.9989
vn -0.0132 0.0405 -0.9991
vn -0.0007 -0.0040 -1.0000
vn -0.0000 -0.0484 -0.9988
vn -0.0003 -0.0053 -1.0000
vn 0.0008 -0.0082 -1.0000
vn -0.0015 -0.0080 -1.0000
vn 0.0010 -0.0069 -1.0000
vn 0.0007 -0.0069 -1.0000
vn 0.0008 -0.0047 -1.0000
vn 0.0011 -0.0045 -1.0000
vn 0.0026 -0.0049 -1.0000
vn 0.0022 -0.0052 -1.0000
vn 0.0019 -0.0048 -1.0000
vn 0.0011 -0.0049 -1.0000
vn 0.0014 0.0304 -0.9995
vn 0.0216 0.0049 -0.9998
vn 0.0008 -0.0068 -1.0000
vn -0.0031 -0.0045 -1.0000
vn -0.0008 -0.0046 -1.0000
vn -0.0007 -0.0046 -1.0000
vn -0.0006 -0.0045 -1.0000
vn -0.0003 -0.0042 -1.0000
vn -0.0017 -0.0052 -1.0000
vn -0.0007 -0.0042 -1.0000
vn -0.0008 -0.0049 -1.0000
vn -0.0013 -0.0050 -1.0000
vn -0.0006 -0.0043 -1.0000
vn 0.0000 0.0295 -0.9996
vn -0.0013 0.0285 -0.9996
vn -0.0014 0.0308 -0.9995
vn -0.0146 -0.0062 -0.9999
vn -0.0153 -0.0037 -0.9999
vn -0.0146 -0.0044 -0.9999
vn -0.0140 -0.0046 -0.9999
vn -0.0145 -0.0065 -0.9999
vn 0.0210 -0.0059 -0.9998
vn 0.0215 -0.0056 -0.9998
vn 0.0260 0.0095 -0.9996
vn 0.0215 -0.0069 -0.9997
vn -0.0025 -0.0049 -1.0000
vn -0.0021 -0.0045 -1.0000
vn -0.0020 -0.0045 -1.0000
vn -0.0015 -0.0045 -1.0000
vn -0.0021 -0.0049 -1.0000
vn -0.0031 -0.0044 -1.0000
vn -0.0027 -0.0060 -1.0000
vn -0.0054 -0.0049 -1.0000
vn 0.0075 -0.0049 -1.0000
vn 0.0071 -0.0051 -1.0000
vn 0.0092 -0.0040 -0.9999
vn 0.0004 -0.0064 -1.0000
vn 0.0005 -0.0065 -1.0000
vn -0.0073 -0.0015 -1.0000
vn 0.0006 -0.0073 -1.0000
vn -0.0003 0.0005 -1.0000
vn -0.0005 -1.0000 0.0070
vn 0.0015 -1.0000 -0.0065
vn -0.0000 0.0041 -1.0000
vn 0.0015 -1.0000 -0.0047
vn -0.0024 -0.3381 -0.9411
vn -0.0074 -1.0000 0.0052
vn -0.0003 0.0036 -1.0000
vn 0.0015 -1.0000 -0.0050
vn -0.0005 -1.0000 0.0055
vn -0.0003 0.0004 -1.0000
vn 0.0007 -0.0065 -1.0000
vn 0.0013 0.0030 1.0000
vn 0.0031 -0.3369 0.9416
vn -0.0003 0.0018 -1.0000
vn -0.0005 -1.0000 0.0073
vn 0.0015 -1.0000 -0.0068
vn -0.0004 -0.0041 -1.0000
vn -0.0004 0.0022 -1.0000
vn -0.0003 0.0022 -1.0000
vn 0.0018 0.0018 -1.0000
vn -0.0003 0.0010 -1.0000
vn -0.0002 0.0013 -1.0000
vn -0.0010 0.0011 -1.0000
vn -0.0009 0.0015 -1.0000
vn -0.0151 0.0117 -0.9998
vn -0.0026 0.0281 -0.9996
vn -0.0009 0.0020 -1.0000
vn -0.0010 0.0020 -1.0000
vn 0.0008 -0.0035 -1.0000
vn 0.0009 -0.0041 -1.0000
vn 0.0019 -0.0050 -1.0000
vn 0.0008 -0.0049 -1.0000
vn -0.0027 -0.0041 -1.0000
vn -0.0037 -0.0052 -1.0000
vn -0.0050 -0.0043 -1.0000
vn 0.0004 -0.0116 -0.9999
vn -0.0000 -0.0128 -0.9999
vn -0.0001 -0.0128 -0.9999
vn 0.0001 -0.0123 -0.9999
vn 0.0075 0.9982 -0.0599
vn -0.0002 -0.7866 -0.6174
vn -0.9895 0.0000 0.1443
vn -0.0217 0.9984 -0.0525
vn -0.0009 1.0000 0.0000
vn -0.0048 -0.9499 0.3125
vn -0.5614 -0.0082 -0.8275
vn 0.0022 0.9520 -0.3061
vn 0.9975 0.0052 -0.0700
vn 0.0038 -0.9037 0.4282
vn -0.8913 0.0093 0.4534
vn 0.0019 0.9999 0.0144
vn 0.6378 -0.0015 -0.7702
vn -0.0020 -0.9556 0.2945
vn 0.0088 0.9371 -0.3491
vn 0.9964 0.0001 0.0848
vn -0.0111 -0.9953 0.0960
vn -0.9434 -0.0024 -0.3317
vn 0.0060 0.9360 -0.3519
vn 0.9981 0.0042 0.0618
vn 0.0241 -0.1997 0.9796
vn 0.5990 0.0009 0.8007
vn 0.0045 0.8119 0.5837
vn -0.7536 0.0072 0.6573
vn -0.0024 -0.9578 0.2874
vn 0.0034 0.9609 -0.2770
vn 0.9790 -0.0003 -0.2040
vn -0.9860 0.0039 0.1668
vn -0.9947 -0.0010 -0.1027
vn 0.9947 0.0008 0.1030
vn 0.9934 -0.0011 -0.1144
vn -0.9955 0.0023 0.0948
vn 0.0049 0.9784 -0.2067
vn 0.0049 0.9801 -0.1985
vn -0.9915 -0.0011 -0.1304
vn 0.9914 0.0009 0.1305
vn -0.0052 -0.9800 0.1988
vn -0.0052 -0.9787 0.2054
vn -0.0090 -0.9996 0.0283
vn -0.9944 -0.0040 0.1052
vn 0.0043 0.9403 -0.3404
vn 0.9948 0.0040 -0.1017
vn -0.9872 -0.0092 -0.1591
vn 0.0081 0.9833 -0.1818
vn -0.0304 0.9785 -0.2038
vn 0.9998 0.0042 0.0206
vn -0.9992 -0.0045 0.0403
vn 0.9993 0.0042 -0.0377
vn -0.0063 -0.9818 0.1899
vn 0.0283 -0.9830 0.1814
vn -0.0016 0.8097 0.5868
vn -0.9991 0.0011 0.0433
vn -0.0014 -0.5483 0.8363
vn 0.9990 -0.0008 -0.0443
vn 0.3471 -0.0073 0.9378
vn 0.0036 0.9737 -0.2280
vn 0.0039 0.9783 -0.2072
vn -0.7108 0.0005 0.7034
vn -0.9927 0.0018 0.1208
vn 0.9945 -0.0010 -0.1049
vn -0.0032 -0.9737 0.2279
vn -0.0035 -0.9785 0.2064
vn -0.6322 -0.0179 -0.7746
vn 0.0002 0.9546 -0.2979
vn 0.9926 0.0042 -0.1212
vn -0.0004 -0.9542 0.2990
vn 0.0013 -0.9799 0.1997
vn 0.0003 0.9592 -0.2827
vn -0.0005 -0.9590 0.2835
vn -0.9999 -0.0072 0.0072
vn -0.9989 -0.0076 -0.0469
vn 0.0019 -0.9746 0.2241
vn 0.0003 0.9644 -0.2644
vn -0.0003 -0.9629 0.2700
vn -0.9988 -0.0072 -0.0481
vn -1.0000 -0.0067 0.0022
vn 0.0011 0.9541 -0.2994
vn 0.9992 0.0069 0.0382
vn 0.9999 0.0069 -0.0079
vn -0.0012 0.9717 -0.2363
vn 0.9999 0.0073 -0.0085
vn 0.9989 0.0077 0.0464
vn -0.9502 0.0053 0.3115
vn -0.0016 0.9624 -0.2715
vn 0.7064 -0.0030 -0.7078
vn 0.0014 -0.9624 0.2716
vn 0.0004 0.9984 -0.0559
vn 0.9997 -0.0009 -0.0258
vn 0.9998 -0.0005 -0.0206
vn 0.0001 0.9980 -0.0633
vn 0.9997 -0.0015 -0.0261
vn 0.9995 -0.0016 -0.0322
vn 0.0025 -0.8934 0.4492
vn -0.0015 0.9621 -0.2727
vn 0.0013 -0.9621 0.2727
vn -0.9996 0.0014 0.0291
vn -0.9997 0.0014 0.0258
vn -0.0187 -0.9998 -0.0107
vn -0.0013 0.9623 -0.2721
vn 0.0012 -0.9620 0.2729
vn -0.9996 0.0008 0.0287
vn -0.9997 0.0008 0.0252
vn -0.0085 -0.9998 0.0153
vn -0.9996 -0.0026 -0.0284
vn 0.0067 0.9450 -0.3271
vn 0.9394 0.0083 -0.3426
vn -0.0153 -0.9893 -0.1448
vn -0.9943 -0.0041 0.1069
vn 0.0053 0.9359 -0.3522
vn 0.9948 0.0040 -0.1019
vn -0.9966 -0.0029 -0.0828
vn 0.0082 0.9837 -0.1796
vn -0.0310 0.9812 -0.1907
vn 0.9641 0.0029 -0.2654
vn -0.9992 -0.0045 0.0408
vn 0.9993 0.0043 -0.0369
vn -0.0065 -0.9809 0.1944
vn 0.0285 -0.9820 0.1867
vn 0.0063 -0.9978 0.0660
vn 0.0067 0.9614 -0.2752
vn -0.0019 -0.9630 0.2694
vn 0.0076 0.9694 -0.2453
vn 0.9948 0.0012 -0.1015
vn -0.9800 0.0000 -0.1991
vn -0.9947 -0.0010 -0.1028
vn 0.9965 0.0006 -0.0839
vn -0.9284 0.0061 -0.3716
vn 0.0049 0.9785 -0.2064
vn 0.0048 0.9798 -0.2002
vn -0.9913 -0.0011 -0.1318
vn 0.9913 0.0009 0.1319
vn -0.0052 -0.9800 0.1990
vn -0.0054 -0.9777 0.2100
usemtl Material.005
s off
f 1/1/1 3/2/1 4/3/1
f 8/4/2 54/5/2 53/6/2
f 5/7/3 34/8/3 33/9/3
f 17/10/4 10/11/4 19/12/4
f 7/13/5 30/14/5 29/15/5
f 25/16/6 13/17/6 28/18/6
f 27/19/7 13/20/7 9/21/7
f 34/22/4 11/23/4 35/24/4
f 3/25/4 9/26/4 10/11/4
f 54/27/4 12/28/4 55/29/4
f 39/30/8 15/31/8 11/32/8
f 37/33/6 15/34/6 40/35/6
f 30/36/6 16/37/6 32/38/6
f 1/39/6 14/40/6 13/17/6
f 9/41/9 14/42/9 10/43/9
f 19/44/10 14/45/10 20/46/10
f 19/44/10 24/47/10 23/48/10
f 18/49/6 14/40/6 4/50/6
f 17/51/5 4/52/5 3/25/5
f 17/10/4 23/53/4 21/54/4
f 14/55/4 13/56/4 20/57/4
f 9/58/6 10/59/6 19/60/6
f 19/61/11 13/62/11 9/63/11
f 21/54/4 31/64/4 29/65/4
f 23/48/10 32/66/10 31/67/10
f 18/49/6 24/68/6 20/69/6
f 21/70/5 18/71/5 17/51/5
f 26/72/4 9/26/4 2/73/4
f 36/74/7 27/19/7 35/75/7
f 25/16/6 36/76/6 33/77/6
f 25/78/3 2/79/3 1/80/3
f 66/81/12 28/82/12 65/83/12
f 31/67/10 16/84/10 12/85/10
f 29/65/4 12/28/4 7/86/4
f 22/87/6 32/38/6 24/68/6
f 29/15/5 22/88/5 21/70/5
f 33/77/6 15/34/6 5/89/6
f 15/90/7 35/75/7 11/91/7
f 26/72/4 35/24/4 27/92/4
f 33/9/3 26/93/3 25/78/3
f 67/94/4 28/95/4 36/96/4
f 68/97/4 27/92/4 35/24/4
f 68/98/13 36/99/13 67/100/13
f 37/33/6 44/101/6 41/102/6
f 40/35/14 48/103/14 44/101/14
f 38/104/4 11/23/4 6/105/4
f 5/106/2 38/107/2 6/108/2
f 52/109/8 43/110/8 51/111/8
f 41/102/6 52/112/6 49/113/6
f 38/104/4 43/114/4 39/115/4
f 41/116/2 38/107/2 37/117/2
f 48/118/8 45/119/8 47/120/8
f 39/121/3 46/122/3 40/123/3
f 43/124/15 48/125/15 47/126/15
f 43/114/16 45/127/16 39/115/16
f 49/113/6 56/128/6 53/129/6
f 52/112/14 60/130/14 56/128/14
f 42/131/4 51/132/4 43/114/4
f 49/133/2 42/134/2 41/116/2
f 16/135/8 55/136/8 12/137/8
f 53/129/6 16/37/6 8/138/6
f 50/139/4 55/29/4 51/132/4
f 53/6/2 50/140/2 49/133/2
f 60/141/8 57/142/8 59/143/8
f 51/144/17 58/145/17 52/146/17
f 55/147/15 60/148/15 59/149/15
f 55/29/16 57/150/16 51/132/16
f 64/151/18 32/152/18 31/153/18
f 31/64/4 62/154/4 64/155/4
f 32/156/4 61/157/4 63/158/4
f 62/159/19 24/160/19 23/161/19
f 67/162/20 72/163/20 68/164/20
f 178/165/4 66/166/4 68/97/4
f 179/167/4 65/168/4 67/94/4
f 66/81/21 177/169/21 178/170/21
f 181/171/22 76/172/22 183/173/22
f 63/174/23 159/175/23 158/176/23
f 63/177/24 70/178/24 69/179/24
f 104/180/25 94/181/25 64/155/25
f 76/172/26 182/182/26 183/173/26
f 70/178/27 73/183/27 69/179/27
f 72/163/28 75/184/28 76/185/28
f 159/186/29 73/187/29 161/188/29
f 181/189/30 84/190/30 72/191/30
f 201/192/31 196/193/31 72/191/31
f 111/194/32 107/195/32 91/196/32
f 176/197/33 155/198/33 92/199/33
f 105/200/34 109/201/34 110/202/34
f 110/202/34 114/203/34 115/204/34
f 109/201/34 112/205/34 114/203/34
f 233/206/35 237/207/35 79/208/35
f 115/204/36 104/180/36 106/209/36
f 115/204/34 108/210/34 110/202/34
f 230/211/37 225/212/37 85/213/37
f 94/181/38 111/194/38 64/155/38
f 122/214/39 118/215/39 116/216/39
f 126/217/40 123/218/40 122/214/40
f 126/217/41 121/219/41 125/220/41
f 124/221/42 123/218/42 127/222/42
f 117/223/43 127/222/43 126/217/43
f 129/224/44 139/225/44 138/226/44
f 134/227/45 131/228/45 128/229/45
f 138/226/46 135/230/46 134/227/46
f 136/231/47 134/227/47 132/232/47
f 139/225/48 133/233/48 135/230/48
f 129/224/49 101/234/49 79/208/49
f 191/235/50 189/236/50 137/237/50
f 140/238/51 142/239/51 136/231/51
f 232/240/52 92/199/52 108/210/52
f 141/241/53 83/242/53 70/243/53
f 120/244/54 68/97/54 96/245/54
f 186/246/55 140/238/55 185/247/55
f 175/248/56 153/249/56 174/250/56
f 170/251/57 151/252/57 148/253/57
f 147/254/29 182/182/29 180/255/29
f 150/256/58 171/257/58 172/258/58
f 146/259/23 180/260/23 179/261/23
f 170/262/22 150/256/22 172/258/22
f 145/263/59 166/264/59 167/265/59
f 168/266/4 144/267/4 146/268/4
f 63/158/4 156/269/4 158/270/4
f 157/271/60 61/272/60 62/159/60
f 160/273/22 74/274/22 70/275/22
f 162/276/61 73/187/61 74/274/61
f 70/243/62 163/277/62 160/278/62
f 143/279/63 164/280/63 141/241/63
f 169/281/29 161/188/29 171/257/29
f 158/176/23 169/282/23 168/283/23
f 168/283/23 147/284/23 146/259/23
f 169/281/29 149/285/29 147/254/29
f 158/270/4 166/286/4 168/266/4
f 167/265/64 156/287/64 157/271/64
f 170/262/22 162/276/22 160/273/22
f 172/258/65 161/188/65 162/276/65
f 160/278/62 173/288/62 170/251/62
f 155/198/66 175/248/66 165/289/66
f 164/280/67 173/288/67 163/277/67
f 165/289/66 174/250/66 164/280/66
f 179/261/23 71/290/23 67/291/23
f 180/255/29 75/292/29 71/293/29
f 154/294/68 185/247/68 153/249/68
f 153/249/69 184/295/69 151/252/69
f 152/296/68 186/246/68 154/294/68
f 148/253/57 184/295/57 181/189/57
f 183/173/70 149/285/70 150/256/70
f 148/297/22 183/173/22 150/256/22
f 178/170/71 144/298/71 145/263/71
f 146/268/4 177/299/4 179/167/4
f 197/300/67 190/301/67 188/302/67
f 206/303/67 195/304/67 194/305/67
f 205/306/72 194/305/72 192/307/72
f 207/308/67 193/309/67 195/304/67
f 202/310/67 198/311/67 197/300/67
f 201/192/72 197/300/72 196/193/72
f 203/312/67 199/313/67 198/311/67
f 194/305/67 203/312/67 202/310/67
f 189/236/72 207/308/72 206/303/72
f 218/314/39 214/315/39 212/316/39
f 222/317/40 219/318/40 218/314/40
f 222/317/41 217/319/41 221/320/41
f 220/321/42 219/318/42 223/322/42
f 213/323/43 223/322/43 222/317/43
f 116/216/73 118/215/73 89/324/73
f 212/316/74 214/315/74 90/325/74
f 210/326/75 98/327/75 125/220/75
f 221/320/76 217/319/76 80/328/76
f 215/329/77 78/330/77 210/326/77
f 230/211/34 234/331/34 235/332/34
f 235/332/34 238/333/34 239/334/34
f 234/331/34 236/335/34 238/333/34
f 239/334/36 229/336/36 231/337/36
f 239/334/34 233/206/34 235/332/34
f 241/338/4 242/339/4 240/340/4
f 1/1/1 2/341/1 3/2/1
f 8/4/2 7/342/2 54/5/2
f 5/7/3 6/343/3 34/8/3
f 17/10/4 3/25/4 10/11/4
f 7/13/5 8/344/5 30/14/5
f 25/16/6 1/39/6 13/17/6
f 27/19/7 28/345/7 13/20/7
f 34/22/4 6/105/4 11/23/4
f 3/25/4 2/73/4 9/26/4
f 54/27/4 7/86/4 12/28/4
f 39/30/8 40/346/8 15/31/8
f 37/33/6 5/89/6 15/34/6
f 30/36/6 8/138/6 16/37/6
f 1/39/6 4/50/6 14/40/6
f 9/41/9 13/347/9 14/42/9
f 19/44/10 10/348/10 14/45/10
f 19/44/10 20/46/10 24/47/10
f 18/49/6 20/69/6 14/40/6
f 17/51/5 18/71/5 4/52/5
f 17/10/4 19/12/4 23/53/4
f 19/61/78 20/349/78 13/62/78
f 21/54/4 23/53/4 31/64/4
f 23/48/10 24/47/10 32/66/10
f 18/49/6 22/87/6 24/68/6
f 21/70/5 22/88/5 18/71/5
f 26/72/4 27/92/4 9/26/4
f 36/74/7 28/345/7 27/19/7
f 25/16/6 28/18/6 36/76/6
f 25/78/3 26/93/3 2/79/3
f 66/81/79 27/350/79 28/82/79
f 31/67/10 32/66/10 16/84/10
f 29/65/4 31/64/4 12/28/4
f 22/87/6 30/36/6 32/38/6
f 29/15/5 30/14/5 22/88/5
f 33/77/6 36/76/6 15/34/6
f 15/90/7 36/74/7 35/75/7
f 26/72/4 34/22/4 35/24/4
f 33/9/3 34/8/3 26/93/3
f 67/94/4 65/168/4 28/95/4
f 68/97/4 66/166/4 27/92/4
f 68/98/80 35/351/80 36/99/80
f 37/33/6 40/35/6 44/101/6
f 40/35/14 46/352/14 48/103/14
f 38/104/4 39/115/4 11/23/4
f 5/106/2 37/117/2 38/107/2
f 52/109/8 44/353/8 43/110/8
f 41/102/6 44/101/6 52/112/6
f 38/104/4 42/131/4 43/114/4
f 41/116/2 42/134/2 38/107/2
f 48/118/8 46/354/8 45/119/8
f 39/121/3 45/355/3 46/122/3
f 43/124/15 44/356/15 48/125/15
f 43/114/16 47/357/16 45/127/16
f 49/113/6 52/112/6 56/128/6
f 52/112/14 58/358/14 60/130/14
f 42/131/4 50/139/4 51/132/4
f 49/133/2 50/140/2 42/134/2
f 16/135/8 56/359/8 55/136/8
f 53/129/6 56/128/6 16/37/6
f 50/139/4 54/27/4 55/29/4
f 53/6/2 54/5/2 50/140/2
f 60/141/8 58/360/8 57/142/8
f 51/144/17 57/361/17 58/145/17
f 55/147/15 56/362/15 60/148/15
f 55/29/16 59/363/16 57/150/16
f 64/151/81 63/364/81 32/152/81
f 31/64/4 23/53/4 62/154/4
f 32/156/4 24/365/4 61/157/4
f 62/159/82 61/272/82 24/160/82
f 67/162/20 71/366/20 72/163/20
f 77/367/4 64/155/4 157/368/4
f 64/155/4 62/154/4 157/368/4
f 157/368/4 167/369/4 77/367/4
f 167/369/4 145/370/4 82/371/4
f 82/371/4 81/372/4 167/369/4
f 81/372/4 77/367/4 167/369/4
f 68/97/4 78/330/4 178/165/4
f 78/330/4 82/371/4 145/370/4
f 178/165/4 78/330/4 145/370/4
f 179/167/4 177/299/4 65/168/4
f 66/81/12 65/83/12 177/169/12
f 181/171/22 72/373/22 76/172/22
f 63/174/23 69/374/23 159/175/23
f 63/177/24 64/375/24 70/178/24
f 64/155/83 77/367/83 227/376/83
f 77/367/84 226/377/84 231/337/84
f 229/336/84 77/367/84 231/337/84
f 229/336/84 227/376/84 77/367/84
f 227/376/85 93/378/85 64/155/85
f 93/378/25 106/209/25 64/155/25
f 106/209/25 104/180/25 64/155/25
f 76/172/13 75/292/13 182/182/13
f 70/178/27 74/379/27 73/183/27
f 72/163/28 71/366/28 75/184/28
f 159/186/29 69/380/29 73/187/29
f 181/189/86 184/295/86 84/190/86
f 72/381/87 84/382/87 100/383/87
f 100/384/88 128/229/88 72/191/88
f 128/229/88 131/228/88 72/191/88
f 99/385/89 87/386/89 72/191/89
f 87/386/90 205/306/90 72/191/90
f 205/306/31 192/307/31 72/191/31
f 72/191/88 131/228/88 99/385/88
f 196/193/31 88/387/31 72/191/31
f 192/307/31 201/192/31 72/191/31
f 111/194/32 112/205/32 107/195/32
f 155/198/33 86/388/33 92/199/33
f 86/388/91 91/196/91 103/389/91
f 103/389/91 105/200/91 86/388/91
f 105/200/91 92/199/91 86/388/91
f 92/199/92 224/390/92 176/197/92
f 224/390/93 85/213/93 187/391/93
f 187/391/93 152/296/93 224/390/93
f 152/296/93 176/197/93 224/390/93
f 105/200/94 103/389/94 109/201/94
f 110/202/34 109/201/34 114/203/34
f 109/201/95 107/195/95 112/205/95
f 226/377/96 77/367/96 237/207/96
f 77/367/97 79/208/97 237/207/97
f 79/208/35 225/212/35 233/206/35
f 115/204/34 114/203/34 104/180/34
f 115/204/98 113/392/98 108/210/98
f 225/212/99 79/208/99 101/234/99
f 101/234/100 85/213/100 225/212/100
f 85/213/37 224/390/37 228/393/37
f 230/211/37 85/213/37 228/393/37
f 94/181/32 112/205/32 111/194/32
f 122/214/101 123/218/101 118/215/101
f 126/217/102 127/222/102 123/218/102
f 126/217/103 122/214/103 121/219/103
f 124/221/104 120/244/104 123/218/104
f 117/223/16 119/394/16 127/222/16
f 129/224/105 130/395/105 139/225/105
f 134/227/48 135/230/48 131/228/48
f 138/226/106 139/225/106 135/230/106
f 136/231/44 138/226/44 134/227/44
f 139/225/107 137/237/107 133/233/107
f 79/208/108 80/328/108 130/395/108
f 80/328/109 102/396/109 130/395/109
f 79/208/49 130/395/49 129/224/49
f 189/236/110 87/386/110 133/233/110
f 87/386/111 99/385/111 133/233/111
f 133/233/112 137/237/112 189/236/112
f 137/237/113 102/396/113 90/325/113
f 90/325/50 191/235/50 137/237/50
f 142/239/51 85/213/51 136/231/51
f 85/213/114 101/234/114 136/231/114
f 136/231/115 132/232/115 140/238/115
f 132/232/116 100/384/116 84/190/116
f 140/238/117 132/232/117 84/190/117
f 113/392/118 93/378/118 227/376/118
f 227/376/119 236/335/119 113/392/119
f 236/335/120 232/240/120 108/210/120
f 232/240/121 224/390/121 92/199/121
f 108/210/122 113/392/122 236/335/122
f 70/243/123 64/155/123 111/194/123
f 111/194/124 91/196/124 70/243/124
f 91/196/125 86/388/125 143/279/125
f 70/243/126 91/196/126 143/279/126
f 143/279/53 141/241/53 70/243/53
f 97/397/127 68/97/127 124/221/127
f 68/97/128 72/191/128 96/245/128
f 124/221/129 68/97/129 120/244/129
f 72/191/130 88/387/130 188/302/130
f 190/301/130 89/324/130 72/191/130
f 89/324/131 96/245/131 72/191/131
f 72/191/130 188/302/130 190/301/130
f 186/246/132 142/239/132 140/238/132
f 175/248/68 154/294/68 153/249/68
f 170/251/133 173/288/133 151/252/133
f 147/254/29 149/285/29 182/182/29
f 150/256/134 149/285/134 171/257/134
f 146/259/23 147/284/23 180/260/23
f 170/262/22 148/297/22 150/256/22
f 145/263/135 144/298/135 166/264/135
f 168/266/4 166/286/4 144/267/4
f 63/158/4 61/157/4 156/269/4
f 157/271/136 156/287/136 61/272/136
f 160/273/22 162/276/22 74/274/22
f 162/276/137 161/188/137 73/187/137
f 70/243/138 83/242/138 163/277/138
f 143/279/66 165/289/66 164/280/66
f 169/281/29 159/186/29 161/188/29
f 158/176/23 159/175/23 169/282/23
f 168/283/23 169/282/23 147/284/23
f 169/281/29 171/257/29 149/285/29
f 158/270/4 156/269/4 166/286/4
f 167/265/139 166/264/139 156/287/139
f 170/262/22 172/258/22 162/276/22
f 172/258/140 171/257/140 161/188/140
f 160/278/141 163/277/141 173/288/141
f 155/198/142 176/197/142 175/248/142
f 164/280/56 174/250/56 173/288/56
f 165/289/56 175/248/56 174/250/56
f 179/261/23 180/260/23 71/290/23
f 180/255/29 182/182/29 75/292/29
f 154/294/68 186/246/68 185/247/68
f 153/249/68 185/247/68 184/295/68
f 152/296/93 187/391/93 186/246/93
f 148/253/143 151/252/143 184/295/143
f 183/173/144 182/182/144 149/285/144
f 148/297/22 181/171/22 183/173/22
f 178/170/145 177/169/145 144/298/145
f 146/268/4 144/267/4 177/299/4
f 197/300/67 198/311/67 190/301/67
f 206/303/67 207/308/67 195/304/67
f 205/306/67 206/303/67 194/305/67
f 207/308/67 204/398/67 193/309/67
f 202/310/67 203/312/67 198/311/67
f 201/192/67 202/310/67 197/300/67
f 203/312/67 200/399/67 199/313/67
f 194/305/67 195/304/67 203/312/67
f 189/236/72 191/235/72 207/308/72
f 218/314/101 219/318/101 214/315/101
f 222/317/102 223/322/102 219/318/102
f 222/317/103 218/314/103 217/319/103
f 220/321/104 216/400/104 219/318/104
f 213/323/16 215/329/16 223/322/16
f 204/398/146 90/325/146 209/401/146
f 204/398/146 209/401/146 193/309/146
f 209/401/147 95/402/147 193/309/147
f 200/399/148 193/309/148 95/402/148
f 89/324/149 199/313/149 116/216/149
f 199/313/148 200/399/148 95/402/148
f 116/216/150 199/313/150 95/402/150
f 118/215/151 96/245/151 89/324/151
f 90/325/152 102/396/152 208/403/152
f 102/396/153 80/328/153 208/403/153
f 214/315/154 209/401/154 90/325/154
f 90/325/155 208/403/155 212/316/155
f 125/220/156 121/219/156 220/321/156
f 121/219/157 95/402/157 216/400/157
f 95/402/158 209/401/158 216/400/158
f 216/400/157 220/321/157 121/219/157
f 220/321/159 210/326/159 125/220/159
f 208/403/160 80/328/160 217/319/160
f 80/328/161 78/330/161 221/320/161
f 78/330/162 211/404/162 221/320/162
f 211/404/77 78/330/77 213/323/77
f 78/330/163 68/97/163 210/326/163
f 213/323/164 78/330/164 215/329/164
f 68/97/165 97/397/165 119/394/165
f 119/394/166 117/223/166 68/97/166
f 117/223/166 98/327/166 68/97/166
f 98/327/167 210/326/167 68/97/167
f 230/211/94 228/393/94 234/331/94
f 235/332/34 234/331/34 238/333/34
f 234/331/95 232/240/95 236/335/95
f 239/334/34 238/333/34 229/336/34
f 239/334/98 237/207/98 233/206/98
f 241/338/4 243/405/4 242/339/4
f 244/406/2 247/407/2 246/408/2
f 251/409/168 296/410/168 297/411/168
f 248/412/169 276/413/169 277/414/169
f 260/415/170 262/416/170 253/417/170
f 250/418/171 272/419/171 273/420/171
f 268/421/172 271/422/172 256/423/172
f 270/424/173 252/425/173 256/426/173
f 277/427/174 278/428/174 254/429/174
f 246/430/175 253/417/175 252/431/175
f 297/432/176 298/433/176 255/434/176
f 282/435/177 254/436/177 258/437/177
f 280/438/178 283/439/178 258/440/178
f 273/441/179 275/442/179 259/443/179
f 244/444/180 256/423/180 257/445/180
f 252/446/181 253/447/181 257/448/181
f 262/449/182 263/450/182 257/451/182
f 262/449/183 266/452/183 267/453/183
f 261/454/184 247/455/184 257/445/184
f 260/456/185 246/457/185 247/458/185
f 260/415/186 264/459/186 266/460/186
f 257/461/187 263/462/187 256/463/187
f 252/464/188 262/465/188 253/466/188
f 262/467/189 252/468/189 256/469/189
f 264/459/186 272/470/186 274/471/186
f 266/452/190 274/472/190 275/473/190
f 261/454/191 263/474/191 267/475/191
f 264/476/3 260/456/3 261/477/3
f 269/478/192 245/479/192 252/431/192
f 279/480/193 278/481/193 270/424/193
f 268/421/194 276/482/194 279/483/194
f 268/484/195 244/485/195 245/486/195
f 309/487/196 308/488/196 271/489/196
f 274/472/197 255/490/197 259/491/197
f 272/470/198 250/492/198 255/434/198
f 265/493/199 267/475/199 275/442/199
f 272/419/3 264/476/3 265/494/3
f 276/482/200 248/495/200 258/440/200
f 258/496/201 254/497/201 278/481/201
f 269/478/202 270/498/202 278/428/202
f 276/413/5 268/484/5 269/499/5
f 310/500/203 279/501/203 271/502/203
f 311/503/204 278/428/204 270/498/204
f 311/504/205 310/505/205 279/506/205
f 280/438/178 284/507/178 287/508/178
f 283/439/75 287/508/75 291/509/75
f 281/510/206 249/511/206 254/429/206
f 248/512/207 249/513/207 281/514/207
f 295/515/208 294/516/208 286/517/208
f 284/507/178 292/518/178 295/519/178
f 281/510/176 282/520/176 286/521/176
f 284/522/1 280/523/1 281/514/1
f 291/524/208 290/525/208 288/526/208
f 282/527/209 283/528/209 289/529/209
f 286/530/210 290/531/210 291/532/210
f 286/521/211 282/520/211 288/533/211
f 292/518/178 296/534/178 299/535/178
f 295/519/62 299/535/62 303/536/62
f 285/537/176 286/521/176 294/538/176
f 292/539/1 284/522/1 285/540/1
f 259/541/212 255/542/212 298/543/212
f 296/534/213 251/544/213 259/443/213
f 293/545/176 294/538/176 298/433/176
f 296/410/1 292/539/1 293/546/1
f 303/547/208 302/548/208 300/549/208
f 294/550/214 295/551/214 301/552/214
f 298/553/215 302/554/215 303/555/215
f 298/433/211 294/538/211 300/556/211
f 307/557/216 274/558/216 275/559/216
f 274/471/217 307/560/217 305/561/217
f 275/562/218 306/563/218 304/564/218
f 305/565/219 266/566/219 267/567/219
f 310/568/220 311/569/220 315/570/220
f 421/571/221 311/503/221 309/572/221
f 422/573/222 310/500/222 308/574/222
f 309/487/223 421/575/223 420/576/223
f 424/577/224 426/578/224 319/579/224
f 306/580/225 401/581/225 402/582/225
f 306/583/226 312/584/226 313/585/226
f 347/586/227 307/560/227 337/587/227
f 319/579/228 426/578/228 425/588/228
f 313/585/229 312/584/229 316/589/229
f 315/570/230 319/590/230 318/591/230
f 402/592/231 404/593/231 316/594/231
f 424/595/232 315/596/232 327/597/232
f 444/598/233 315/596/233 439/599/233
f 354/600/234 334/601/234 350/602/234
f 419/603/235 335/604/235 398/605/235
f 348/606/236 353/607/236 352/608/236
f 353/607/236 358/609/236 357/610/236
f 352/608/236 357/610/236 355/611/236
f 476/612/237 322/613/237 480/614/237
f 358/609/238 349/615/238 347/586/238
f 358/609/236 353/607/236 351/616/236
f 473/617/239 328/618/239 468/619/239
f 337/587/240 307/560/240 354/600/240
f 365/620/241 359/621/241 361/622/241
f 369/623/242 365/620/242 366/624/242
f 369/623/243 368/625/243 364/626/243
f 367/627/244 370/628/244 366/624/244
f 360/629/245 369/623/245 370/628/245
f 372/630/246 381/631/246 382/632/246
f 377/633/247 371/634/247 374/635/247
f 381/631/248 377/633/248 378/636/248
f 379/637/249 375/638/249 377/633/249
f 382/632/250 378/636/250 376/639/250
f 372/630/251 322/613/251 344/640/251
f 434/641/252 380/642/252 432/643/252
f 383/644/253 379/637/253 385/645/253
f 475/646/254 351/616/254 335/604/254
f 384/647/255 313/648/255 326/649/255
f 363/650/256 339/651/256 311/503/256
f 429/652/257 428/653/257 383/644/257
f 418/654/258 417/655/258 396/656/258
f 413/657/259 391/658/259 394/659/259
f 390/660/260 423/661/260 425/588/260
f 393/662/261 415/663/261 414/664/261
f 389/665/262 422/666/262 423/667/262
f 413/668/263 415/663/263 393/662/263
f 388/669/264 410/670/264 409/671/264
f 411/672/265 389/673/265 387/674/265
f 306/563/266 401/675/266 399/676/266
f 400/677/267 305/565/267 304/678/267
f 403/679/268 313/680/268 317/681/268
f 405/682/269 317/681/269 316/594/269
f 313/648/270 403/683/270 406/684/270
f 386/685/271 384/647/271 407/686/271
f 412/687/260 414/664/260 404/593/260
f 401/581/262 411/688/262 412/689/262
f 411/688/262 389/665/262 390/690/262
f 412/687/260 390/660/260 392/691/260
f 401/675/272 411/672/272 409/692/272
f 410/670/273 400/677/273 399/693/273
f 413/668/274 403/679/274 405/682/274
f 415/663/275 405/682/275 404/593/275
f 403/683/276 413/657/276 416/694/276
f 398/605/277 408/695/277 418/654/277
f 407/686/278 406/684/278 416/694/278
f 408/695/277 407/686/277 417/655/277
f 422/666/279 310/696/279 314/697/279
f 423/661/280 314/698/280 318/699/280
f 397/700/281 396/656/281 428/653/281
f 396/656/282 394/659/282 427/701/282
f 395/702/283 397/700/283 429/652/283
f 391/658/6 424/595/6 427/701/6
f 426/578/284 393/662/284 392/691/284
f 391/703/263 393/662/263 426/578/263
f 421/575/285 388/669/285 387/704/285
f 389/673/265 422/573/265 420/705/265
f 440/706/278 431/707/278 433/708/278
f 449/709/278 437/710/278 438/711/278
f 448/712/286 435/713/286 437/710/286
f 450/714/278 438/711/278 436/715/278
f 445/716/278 440/706/278 441/717/278
f 444/598/286 439/599/286 440/706/286
f 446/718/278 441/717/278 442/719/278
f 437/710/278 445/716/278 446/718/278
f 432/643/287 449/709/287 450/714/287
f 461/720/241 455/721/241 457/722/241
f 465/723/242 461/720/242 462/724/242
f 465/723/243 464/725/243 460/726/243
f 463/727/288 466/728/288 462/724/288
f 456/729/245 465/723/245 466/728/245
f 359/621/289 332/730/289 361/622/289
f 455/721/290 333/731/290 457/722/290
f 453/732/247 368/625/247 341/733/247
f 464/725/291 323/734/291 460/726/291
f 458/735/292 453/732/292 321/736/292
f 473/617/236 478/737/236 477/738/236
f 478/737/236 482/739/236 481/740/236
f 477/738/236 481/740/236 479/741/236
f 482/739/238 474/742/238 472/743/238
f 482/739/236 478/737/236 476/612/236
f 484/744/6 483/745/6 485/746/6
f 244/406/2 246/408/2 245/747/2
f 251/409/168 297/411/168 250/748/168
f 248/412/169 277/414/169 249/513/169
f 260/415/293 253/417/293 246/430/293
f 250/418/171 273/420/171 251/749/171
f 268/421/294 256/423/294 244/444/294
f 270/424/295 256/426/295 271/750/295
f 277/427/296 254/429/296 249/511/296
f 246/430/297 252/431/297 245/479/297
f 297/432/298 255/434/298 250/492/298
f 282/435/299 258/437/299 283/751/299
f 280/438/300 258/440/300 248/495/300
f 273/441/301 259/443/301 251/544/301
f 244/444/302 257/445/302 247/455/302
f 252/446/181 257/448/181 256/752/181
f 262/449/303 257/451/303 253/753/303
f 262/449/304 267/453/304 263/450/304
f 261/454/305 257/445/305 263/474/305
f 260/456/185 247/458/185 261/477/185
f 260/415/306 266/460/306 262/416/306
f 262/467/307 256/469/307 263/754/307
f 264/459/186 274/471/186 266/460/186
f 266/452/308 275/473/308 267/453/308
f 261/454/199 267/475/199 265/493/199
f 264/476/3 261/477/3 265/494/3
f 269/478/309 252/431/309 270/498/309
f 279/480/310 270/424/310 271/750/310
f 268/421/311 279/483/311 271/422/311
f 268/484/195 245/486/195 269/499/195
f 309/487/312 271/489/312 270/755/312
f 274/472/313 259/491/313 275/473/313
f 272/470/314 255/434/314 274/471/314
f 265/493/199 275/442/199 273/441/199
f 272/419/3 265/494/3 273/420/3
f 276/482/315 258/440/315 279/483/315
f 258/496/316 278/481/316 279/480/316
f 269/478/202 278/428/202 277/427/202
f 276/413/5 269/499/5 277/414/5
f 310/500/317 271/502/317 308/574/317
f 311/503/318 270/498/318 309/572/318
f 311/504/319 279/506/319 278/756/319
f 280/438/178 287/508/178 283/439/178
f 283/439/75 291/509/75 289/757/75
f 281/510/176 254/429/176 282/520/176
f 248/512/207 281/514/207 280/523/207
f 295/515/208 286/517/208 287/758/208
f 284/507/178 295/519/178 287/508/178
f 281/510/176 286/521/176 285/537/176
f 284/522/1 281/514/1 285/540/1
f 291/524/208 288/526/208 289/759/208
f 282/527/320 289/529/320 288/760/320
f 286/530/321 291/532/321 287/761/321
f 286/521/211 288/533/211 290/762/211
f 292/518/178 299/535/178 295/519/178
f 295/519/62 303/536/62 301/763/62
f 285/537/176 294/538/176 293/545/176
f 292/539/1 285/540/1 293/546/1
f 259/541/208 298/543/208 299/764/208
f 296/534/178 259/443/178 299/535/178
f 293/545/176 298/433/176 297/432/176
f 296/410/1 293/546/1 297/411/1
f 303/547/208 300/549/208 301/765/208
f 294/550/322 301/552/322 300/766/322
f 298/553/323 303/555/323 299/767/323
f 298/433/211 300/556/211 302/768/211
f 307/557/324 275/559/324 306/769/324
f 274/471/325 305/561/325 266/460/325
f 275/562/326 304/564/326 267/770/326
f 305/565/327 267/567/327 304/678/327
f 310/568/328 315/570/328 314/771/328
f 320/772/329 400/773/329 307/560/329
f 307/560/330 400/773/330 305/561/330
f 400/773/331 320/772/331 410/774/331
f 410/774/332 325/775/332 388/776/332
f 325/775/331 410/774/331 324/777/331
f 324/777/333 410/774/333 320/772/333
f 311/503/334 421/571/334 321/736/334
f 321/736/335 388/776/335 325/775/335
f 421/571/331 388/776/331 321/736/331
f 422/573/265 308/574/265 420/705/265
f 309/487/336 420/576/336 308/488/336
f 424/577/337 319/579/337 315/778/337
f 306/580/338 402/582/338 312/779/338
f 306/583/339 313/585/339 307/780/339
f 307/560/340 470/781/340 320/772/340
f 320/772/341 474/742/341 469/782/341
f 472/743/341 474/742/341 320/772/341
f 472/743/341 320/772/341 470/781/341
f 470/781/342 307/560/342 336/783/342
f 336/783/343 307/560/343 349/615/343
f 349/615/344 307/560/344 347/586/344
f 319/579/345 425/588/345 318/699/345
f 313/585/346 316/589/346 317/784/346
f 315/570/347 318/591/347 314/771/347
f 402/592/348 316/594/348 312/785/348
f 424/595/349 327/597/349 427/701/349
f 315/786/350 343/787/350 327/788/350
f 343/789/351 315/790/351 371/791/351
f 371/634/352 315/596/352 374/635/352
f 342/792/353 315/596/353 330/793/353
f 330/793/354 315/596/354 448/712/354
f 448/712/233 315/596/233 435/713/233
f 315/596/355 342/792/355 374/635/355
f 439/599/356 315/596/356 331/794/356
f 435/713/233 315/596/233 444/598/233
f 354/600/234 350/602/234 355/611/234
f 398/605/235 335/604/235 329/795/235
f 329/795/357 346/796/357 334/601/357
f 346/796/357 329/795/357 348/606/357
f 348/606/357 329/795/357 335/604/357
f 335/604/358 419/603/358 467/797/358
f 467/797/359 430/798/359 328/618/359
f 430/798/360 467/797/360 395/702/360
f 395/702/360 467/797/360 419/603/360
f 348/606/361 352/608/361 346/796/361
f 353/607/236 357/610/236 352/608/236
f 352/608/362 355/611/362 350/602/362
f 469/782/363 480/614/363 320/772/363
f 320/772/364 480/614/364 322/613/364
f 322/613/365 476/612/365 468/619/365
f 358/609/236 347/586/236 357/610/236
f 358/609/366 351/616/366 356/799/366
f 468/619/367 344/640/367 322/613/367
f 344/640/368 468/619/368 328/618/368
f 328/618/369 471/800/369 467/797/369
f 473/617/369 471/800/369 328/618/369
f 337/587/370 354/600/370 355/611/370
f 365/620/371 361/622/371 366/624/371
f 369/623/372 366/624/372 370/628/372
f 369/623/373 364/626/373 365/620/373
f 367/627/374 366/624/374 363/650/374
f 360/629/14 370/628/14 362/801/14
f 372/630/375 382/632/375 373/802/375
f 377/633/376 374/635/376 378/636/376
f 381/631/377 378/636/377 382/632/377
f 379/637/378 377/633/378 381/631/378
f 382/632/379 376/639/379 380/642/379
f 322/613/380 373/802/380 323/734/380
f 323/734/381 373/802/381 345/803/381
f 322/613/382 372/630/382 373/802/382
f 432/643/383 376/639/383 330/793/383
f 330/793/384 376/639/384 342/792/384
f 376/639/385 432/643/385 380/642/385
f 380/642/386 333/731/386 345/803/386
f 333/731/387 380/642/387 434/641/387
f 385/645/253 379/637/253 328/618/253
f 328/618/388 379/637/388 344/640/388
f 379/637/389 383/644/389 375/638/389
f 375/638/390 327/597/390 343/804/390
f 383/644/391 327/597/391 375/638/391
f 356/799/392 470/781/392 336/783/392
f 470/781/393 356/799/393 479/741/393
f 479/741/394 351/616/394 475/646/394
f 475/646/395 335/604/395 467/797/395
f 351/616/396 479/741/396 356/799/396
f 313/648/240 354/600/240 307/560/240
f 354/600/397 313/648/397 334/601/397
f 334/601/398 386/685/398 329/795/398
f 313/648/399 386/685/399 334/601/399
f 386/685/255 313/648/255 384/647/255
f 340/805/400 367/627/400 311/503/400
f 311/503/401 339/651/401 315/596/401
f 367/627/402 363/650/402 311/503/402
f 315/596/403 431/707/403 331/794/403
f 433/708/404 315/596/404 332/730/404
f 332/730/405 315/596/405 339/651/405
f 315/596/403 433/708/403 431/707/403
f 429/652/406 383/644/406 385/645/406
f 418/654/283 396/656/283 397/700/283
f 413/657/407 394/659/407 416/694/407
f 390/660/260 425/588/260 392/691/260
f 393/662/408 414/664/408 392/691/408
f 389/665/262 423/667/262 390/690/262
f 413/668/263 393/662/263 391/703/263
f 388/669/409 409/671/409 387/704/409
f 411/672/272 387/674/272 409/692/272
f 306/563/410 399/676/410 304/564/410
f 400/677/411 304/678/411 399/693/411
f 403/679/412 317/681/412 405/682/412
f 405/682/413 316/594/413 404/593/413
f 313/648/414 406/684/414 326/649/414
f 386/685/277 407/686/277 408/695/277
f 412/687/260 404/593/260 402/592/260
f 401/581/262 412/689/262 402/582/262
f 411/688/262 390/690/262 412/689/262
f 412/687/260 392/691/260 414/664/260
f 401/675/272 409/692/272 399/676/272
f 410/670/415 399/693/415 409/671/415
f 413/668/263 405/682/263 415/663/263
f 415/663/416 404/593/416 414/664/416
f 403/683/417 416/694/417 406/684/417
f 398/605/418 418/654/418 419/603/418
f 407/686/258 416/694/258 417/655/258
f 408/695/258 417/655/258 418/654/258
f 422/666/419 314/697/419 423/667/419
f 423/661/420 318/699/420 425/588/420
f 397/700/283 428/653/283 429/652/283
f 396/656/283 427/701/283 428/653/283
f 395/702/360 429/652/360 430/798/360
f 391/658/421 427/701/421 394/659/421
f 426/578/422 392/691/422 425/588/422
f 391/703/274 426/578/274 424/577/274
f 421/575/423 387/704/423 420/576/423
f 389/673/265 420/705/265 387/674/265
f 440/706/278 433/708/278 441/717/278
f 449/709/278 438/711/278 450/714/278
f 448/712/278 437/710/278 449/709/278
f 450/714/278 436/715/278 447/806/278
f 445/716/278 441/717/278 446/718/278
f 444/598/278 440/706/278 445/716/278
f 446/718/278 442/719/278 443/807/278
f 437/710/278 446/718/278 438/711/278
f 432/643/287 450/714/287 434/641/287
f 461/720/371 457/722/371 462/724/371
f 465/723/372 462/724/372 466/728/372
f 465/723/373 460/726/373 461/720/373
f 463/727/424 462/724/424 459/808/424
f 456/729/14 466/728/14 458/735/14
f 447/806/425 452/809/425 333/731/425
f 447/806/426 436/715/426 452/809/426
f 452/809/427 436/715/427 338/810/427
f 443/807/428 338/810/428 436/715/428
f 332/730/429 359/621/429 442/719/429
f 442/719/428 338/810/428 443/807/428
f 359/621/430 338/810/430 442/719/430
f 361/622/431 332/730/431 339/651/431
f 333/731/432 451/811/432 345/803/432
f 345/803/433 451/811/433 323/734/433
f 457/722/434 333/731/434 452/809/434
f 333/731/435 455/721/435 451/811/435
f 368/625/436 463/727/436 364/626/436
f 364/626/437 459/808/437 338/810/437
f 338/810/438 459/808/438 452/809/438
f 459/808/437 364/626/437 463/727/437
f 463/727/439 368/625/439 453/732/439
f 451/811/440 460/726/440 323/734/440
f 323/734/441 464/725/441 321/736/441
f 321/736/442 464/725/442 454/812/442
f 454/812/292 456/729/292 321/736/292
f 321/736/443 453/732/443 311/503/443
f 456/729/292 458/735/292 321/736/292
f 311/503/444 362/801/444 340/805/444
f 362/801/445 311/503/445 360/629/445
f 360/629/445 311/503/445 341/733/445
f 341/733/446 311/503/446 453/732/446
f 473/617/361 477/738/361 471/800/361
f 478/737/236 481/740/236 477/738/236
f 477/738/362 479/741/362 475/646/362
f 482/739/236 472/743/236 481/740/236
f 482/739/366 476/612/366 480/614/366
f 484/744/6 485/746/6 486/813/6
f 82/814/447 78/815/447 321/816/447 325/817/447
f 80/818/448 79/819/448 322/820/448 323/821/448
f 78/822/449 80/823/449 323/824/449 321/825/449
f 77/826/450 81/827/450 324/828/450 320/829/450
f 81/827/451 82/814/451 325/817/451 324/828/451
f 84/830/452 184/831/452 427/832/452 327/833/452
f 85/834/453 142/835/453 385/836/453 328/837/453
f 86/838/454 155/839/454 398/840/454 329/841/454
f 83/842/455 141/843/455 384/844/455 326/845/455
f 88/846/456 196/847/456 439/848/456 331/849/456
f 89/850/457 190/851/457 433/852/457 332/853/457
f 90/854/458 204/855/458 447/856/458 333/857/458
f 87/858/459 189/859/459 432/860/459 330/861/459
f 92/862/460 105/863/460 348/864/460 335/865/460
f 94/866/461 104/867/461 347/868/461 337/869/461
f 79/870/462 77/871/462 320/872/462 322/873/462
f 96/874/463 118/875/463 361/876/463 339/877/463
f 97/878/464 124/879/464 367/880/464 340/881/464
f 98/882/465 117/883/465 360/884/465 341/885/465
f 95/886/466 121/887/466 364/888/466 338/889/466
f 128/890/467 100/891/467 343/892/467 371/893/467
f 136/894/468 101/895/468 344/896/468 379/897/468
f 130/898/469 102/899/469 345/900/469 373/901/469
f 133/902/470 99/903/470 342/904/470 376/905/470
f 103/906/471 91/907/471 334/908/471 346/909/471
f 106/910/472 93/911/472 336/912/472 349/913/472
f 112/914/473 94/915/473 337/916/473 355/917/473
f 93/918/474 113/919/474 356/920/474 336/921/474
f 109/922/475 103/923/475 346/924/475 352/925/475
f 105/926/476 110/927/476 353/928/476 348/929/476
f 91/930/477 107/931/477 350/932/477 334/933/477
f 108/934/478 92/935/478 335/936/478 351/937/478
f 110/938/479 108/939/479 351/940/479 353/941/479
f 107/942/480 109/943/480 352/944/480 350/945/480
f 104/946/481 114/947/481 357/948/481 347/949/481
f 115/950/482 106/951/482 349/952/482 358/953/482
f 114/954/483 112/955/483 355/956/483 357/957/483
f 113/958/484 115/959/484 358/960/484 356/961/484
f 116/962/485 95/963/485 338/964/485 359/965/485
f 122/966/486 116/967/486 359/968/486 365/969/486
f 119/970/487 97/971/487 340/972/487 362/973/487
f 118/974/488 123/975/488 366/976/488 361/977/488
f 120/978/489 96/979/489 339/980/489 363/981/489
f 121/982/490 122/983/490 365/984/490 364/985/490
f 123/986/491 120/987/491 363/988/491 366/989/491
f 125/990/492 98/991/492 341/992/492 368/993/492
f 117/994/493 126/995/493 369/996/493 360/997/493
f 127/998/494 119/999/494 362/1000/494 370/1001/494
f 124/1002/495 127/1003/495 370/1004/495 367/1005/495
f 126/1006/496 125/1007/496 368/1008/496 369/1009/496
f 101/1010/497 129/1011/497 372/1012/497 344/1013/497
f 134/1014/498 128/1015/498 371/1016/498 377/1017/498
f 99/1018/499 131/1019/499 374/1020/499 342/1021/499
f 131/1022/500 135/1023/500 378/1024/500 374/1025/500
f 100/1026/501 132/1027/501 375/1028/501 343/1029/501
f 132/1030/502 134/1031/502 377/1032/502 375/1033/502
f 135/1034/503 133/1035/503 376/1036/503 378/1037/503
f 102/1038/504 137/1039/504 380/1040/504 345/1041/504
f 129/1042/505 138/1043/505 381/1044/505 372/1045/505
f 139/1046/506 130/1047/506 373/1048/506 382/1049/506
f 138/1050/507 136/1051/507 379/1052/507 381/1053/507
f 137/1054/508 139/1055/508 382/1056/508 380/1057/508
f 140/1058/509 84/1059/509 327/1060/509 383/1061/509
f 185/1062/510 140/1063/510 383/1064/510 428/1065/510
f 143/1066/511 86/1067/511 329/1068/511 386/1069/511
f 142/1070/512 186/1071/512 429/1072/512 385/1073/512
f 151/1074/513 173/1075/513 416/1076/513 394/1077/513
f 174/1078/514 153/1079/514 396/1080/514 417/1081/514
f 154/1082/515 175/1083/515 418/1084/515 397/1085/515
f 153/1086/516 151/1087/516 394/1088/516 396/1089/516
f 152/1090/517 154/1091/517 397/1092/517 395/1093/517
f 163/1094/518 83/1095/518 326/1096/518 406/1097/518
f 141/1098/519 164/1099/519 407/1100/519 384/1101/519
f 165/1102/520 143/1103/520 386/1104/520 408/1105/520
f 155/1106/521 165/1107/521 408/1108/521 398/1109/521
f 164/1110/522 163/1111/522 406/1112/522 407/1113/522
f 176/1114/523 152/1115/523 395/1116/523 419/1117/523
f 175/1118/524 176/1119/524 419/1120/524 418/1121/524
f 173/1122/525 174/1123/525 417/1124/525 416/1125/525
f 187/1126/526 85/1127/526 328/1128/526 430/1129/526
f 184/1130/527 185/1131/527 428/1132/527 427/1133/527
f 186/1134/528 187/1135/528 430/1136/528 429/1137/528
f 188/1138/529 88/1139/529 331/1140/529 431/1141/529
f 197/1142/530 188/1143/530 431/1144/530 440/1145/530
f 191/1146/531 90/1147/531 333/1148/531 434/1149/531
f 190/1150/532 198/1151/532 441/1152/532 433/1153/532
f 193/1154/533 200/1155/533 443/1156/533 436/1157/533
f 192/1158/534 194/1159/534 437/1160/534 435/1161/534
f 195/1162/535 193/1163/535 436/1164/535 438/1165/535
f 199/1166/536 89/1167/536 332/1168/536 442/1169/536
f 196/1170/537 197/1171/537 440/1172/537 439/1173/537
f 198/1174/538 199/1175/538 442/1176/538 441/1177/538
f 201/1178/539 192/1179/539 435/1180/539 444/1181/539
f 194/1182/540 202/1183/540 445/1184/540 437/1185/540
f 203/1186/541 195/1187/541 438/1188/541 446/1189/541
f 200/1190/542 203/1191/542 446/1192/542 443/1193/542
f 202/1194/543 201/1195/543 444/1196/543 445/1197/543
f 205/1198/544 87/1199/544 330/1200/544 448/1201/544
f 189/1202/545 206/1203/545 449/1204/545 432/1205/545
f 207/1206/546 191/1207/546 434/1208/546 450/1209/546
f 204/1210/547 207/1211/547 450/1212/547 447/1213/547
f 206/1214/548 205/1215/548 448/1216/548 449/1217/548
f 209/1218/549 214/1219/549 457/1220/549 452/1221/549
f 210/1222/550 220/1223/550 463/1224/550 453/1225/550
f 211/1226/551 213/1227/551 456/1228/551 454/1229/551
f 208/1230/552 217/1231/552 460/1232/552 451/1233/552
f 212/1234/553 208/1235/553 451/1236/553 455/1237/553
f 218/1238/554 212/1239/554 455/1240/554 461/1241/554
f 215/1242/555 210/1243/555 453/1244/555 458/1245/555
f 214/1246/556 219/1247/556 462/1248/556 457/1249/556
f 216/1250/557 209/1251/557 452/1252/557 459/1253/557
f 217/1254/558 218/1255/558 461/1256/558 460/1257/558
f 219/1258/559 216/1259/559 459/1260/559 462/1261/559
f 221/1262/560 211/1263/560 454/1264/560 464/1265/560
f 213/1266/561 222/1267/561 465/1268/561 456/1269/561
f 223/1270/562 215/1271/562 458/1272/562 466/1273/562
f 220/1274/563 223/1275/563 466/1276/563 463/1277/563
f 222/1278/564 221/1279/564 464/1280/564 465/1281/564
f 225/1282/565 230/1283/565 473/1284/565 468/1285/565
f 227/1286/566 229/1287/566 472/1288/566 470/1289/566
f 228/1290/567 224/1291/567 467/1292/567 471/1293/567
f 231/1294/568 226/1295/568 469/1296/568 474/1297/568
f 236/1298/569 227/1299/569 470/1300/569 479/1301/569
f 226/1302/570 237/1303/570 480/1304/570 469/1305/570
f 234/1306/571 228/1307/571 471/1308/571 477/1309/571
f 230/1310/476 235/1311/476 478/1312/476 473/1313/476
f 224/1314/572 232/1315/572 475/1316/572 467/1317/572
f 233/1318/573 225/1319/573 468/1320/573 476/1321/573
f 235/1322/574 233/1323/574 476/1324/574 478/1325/574
f 232/1326/575 234/1327/575 477/1328/575 475/1329/575
f 229/1330/576 238/1331/576 481/1332/576 472/1333/576
f 239/1334/577 231/1335/577 474/1336/577 482/1337/577
f 238/1338/578 236/1339/578 479/1340/578 481/1341/578
f 237/1342/579 239/1343/579 482/1344/579 480/1345/579
f 240/1346/5 242/1347/5 485/1348/5 483/1349/5
f 241/1350/1 240/1351/1 483/1352/1 484/1353/1
f 243/1354/3 241/1350/3 484/1353/3 486/1355/3
f 242/1356/2 243/1357/2 486/1358/2 485/1359/2
