^C:\USERS\USER\DOCUMENTS\UNI\RESITS\REAL-TIME COMPUTER GRAPHICS\BASE PROJECT LIMBO CLONE\WEEK08 - INTRODUCTION TO 3D\GLDEMO\SRC\AIWRAPPER.CPP
/c /Zi /nologo /W3 /WX- /diagnostics:classic /sdl /O2 /Oi /GL /D NDEBUG /D _CONSOLE /D _UNICODE /D UNICODE /Gm- /EHsc /MD /GS /Gy /fp:precise /permissive- /Zc:wchar_t /Zc:forScope /Zc:inline /Yu"stdafx.h" /Fp"X64\RELEASE\GLDEMO.PCH" /Fo"X64\RELEASE\\" /Fd"X64\RELEASE\VC141.PDB" /Gd /TP /FC C:\USERS\USER\DOCUMENTS\UNI\RESITS\REAL-TIME COMPUTER GRAPHICS\BASE PROJECT LIMBO CLONE\WEEK08 - INTRODUCTION TO 3D\GLDEMO\SRC\AIWRAPPER.CPP
^C:\USERS\USER\DOCUMENTS\UNI\RESITS\REAL-TIME COMPUTER GRAPHICS\BASE PROJECT LIMBO CLONE\WEEK08 - INTRODUCTION TO 3D\GLDEMO\SRC\CGTEXTUREDQUAD.CPP
/c /Zi /nologo /W3 /WX- /diagnostics:classic /sdl /O2 /Oi /GL /D NDEBUG /D _CONSOLE /D _UNICODE /D UNICODE /Gm- /EHsc /MD /GS /Gy /fp:precise /permissive- /Zc:wchar_t /Zc:forScope /Zc:inline /Yu"stdafx.h" /Fp"X64\RELEASE\GLDEMO.PCH" /Fo"X64\RELEASE\\" /Fd"X64\RELEASE\VC141.PDB" /Gd /TP /FC C:\USERS\USER\DOCUMENTS\UNI\RESITS\REAL-TIME COMPUTER GRAPHICS\BASE PROJECT LIMBO CLONE\WEEK08 - INTRODUCTION TO 3D\GLDEMO\SRC\CGTEXTUREDQUAD.CPP
^C:\USERS\USER\DOCUMENTS\UNI\RESITS\REAL-TIME COMPUTER GRAPHICS\BASE PROJECT LIMBO CLONE\WEEK08 - INTRODUCTION TO 3D\GLDEMO\SRC\GLDEMO.CPP
/c /Zi /nologo /W3 /WX- /diagnostics:classic /sdl /O2 /Oi /GL /D NDEBUG /D _CONSOLE /D _UNICODE /D UNICODE /Gm- /EHsc /MD /GS /Gy /fp:precise /permissive- /Zc:wchar_t /Zc:forScope /Zc:inline /Yu"stdafx.h" /Fp"X64\RELEASE\GLDEMO.PCH" /Fo"X64\RELEASE\\" /Fd"X64\RELEASE\VC141.PDB" /Gd /TP /FC C:\USERS\USER\DOCUMENTS\UNI\RESITS\REAL-TIME COMPUTER GRAPHICS\BASE PROJECT LIMBO CLONE\WEEK08 - INTRODUCTION TO 3D\GLDEMO\SRC\GLDEMO.CPP
^C:\USERS\USER\DOCUMENTS\UNI\RESITS\REAL-TIME COMPUTER GRAPHICS\BASE PROJECT LIMBO CLONE\WEEK08 - INTRODUCTION TO 3D\GLDEMO\SRC\SHADER_SETUP.CPP
/c /Zi /nologo /W3 /WX- /diagnostics:classic /sdl /O2 /Oi /GL /D NDEBUG /D _CONSOLE /D _UNICODE /D UNICODE /Gm- /EHsc /MD /GS /Gy /fp:precise /permissive- /Zc:wchar_t /Zc:forScope /Zc:inline /Yu"stdafx.h" /Fp"X64\RELEASE\GLDEMO.PCH" /Fo"X64\RELEASE\\" /Fd"X64\RELEASE\VC141.PDB" /Gd /TP /FC C:\USERS\USER\DOCUMENTS\UNI\RESITS\REAL-TIME COMPUTER GRAPHICS\BASE PROJECT LIMBO CLONE\WEEK08 - INTRODUCTION TO 3D\GLDEMO\SRC\SHADER_SETUP.CPP
^C:\USERS\USER\DOCUMENTS\UNI\RESITS\REAL-TIME COMPUTER GRAPHICS\BASE PROJECT LIMBO CLONE\WEEK08 - INTRODUCTION TO 3D\GLDEMO\SRC\TEXTURE_LOADER.CPP
/c /Zi /nologo /W3 /WX- /diagnostics:classic /sdl /O2 /Oi /GL /D NDEBUG /D _CONSOLE /D _UNICODE /D UNICODE /Gm- /EHsc /MD /GS /Gy /fp:precise /permissive- /Zc:wchar_t /Zc:forScope /Zc:inline /Yu"stdafx.h" /Fp"X64\RELEASE\GLDEMO.PCH" /Fo"X64\RELEASE\\" /Fd"X64\RELEASE\VC141.PDB" /Gd /TP /FC C:\USERS\USER\DOCUMENTS\UNI\RESITS\REAL-TIME COMPUTER GRAPHICS\BASE PROJECT LIMBO CLONE\WEEK08 - INTRODUCTION TO 3D\GLDEMO\SRC\TEXTURE_LOADER.CPP
