^C:\USERS\USER\DOCUMENTS\UNI\RESITS\REAL-TIME COMPUTER GRAPHICS\BASE PROJECT LIMBO CLONE\WEEK08 - INTRODUCTION TO 3D\GLDEMO\SRC\AIWRAPPER.CPP|C:\USERS\USER\DOCUMENTS\UNI\RESITS\REAL-TIME COMPUTER GRAPHICS\BASE PROJECT LIMBO CLONE\WEEK08 - INTRODUCTION TO 3D\GLDEMO\SRC\CGPRINCIPLEAXES.CPP|C:\USERS\USER\DOCUMENTS\UNI\RESITS\REAL-TIME COMPUTER GRAPHICS\BASE PROJECT LIMBO CLONE\WEEK08 - INTRODUCTION TO 3D\GLDEMO\SRC\CGTEXTUREDQUAD.CPP|C:\USERS\USER\DOCUMENTS\UNI\RESITS\REAL-TIME COMPUTER GRAPHICS\BASE PROJECT LIMBO CLONE\WEEK08 - INTRODUCTION TO 3D\GLDEMO\SRC\GLDEMO.CPP|C:\USERS\USER\DOCUMENTS\UNI\RESITS\REAL-TIME COMPUTER GRAPHICS\BASE PROJECT LIMBO CLONE\WEEK08 - INTRODUCTION TO 3D\GLDEMO\SRC\SHADER_SETUP.CPP|C:\USERS\USER\DOCUMENTS\UNI\RESITS\REAL-TIME COMPUTER GRAPHICS\BASE PROJECT LIMBO CLONE\WEEK08 - INTRODUCTION TO 3D\GLDEMO\SRC\TEXTURE_LOADER.CPP
C:\USERS\USER\DOCUMENTS\UNI\RESITS\REAL-TIME COMPUTER GRAPHICS\BASE PROJECT LIMBO CLONE\WEEK08 - INTRODUCTION TO 3D\GLDEMO\X64\DEBUG\VC141.PDB
C:\USERS\USER\DOCUMENTS\UNI\RESITS\REAL-TIME COMPUTER GRAPHICS\BASE PROJECT LIMBO CLONE\WEEK08 - INTRODUCTION TO 3D\GLDEMO\X64\DEBUG\VC141.IDB
C:\USERS\USER\DOCUMENTS\UNI\RESITS\REAL-TIME COMPUTER GRAPHICS\BASE PROJECT LIMBO CLONE\WEEK08 - INTRODUCTION TO 3D\GLDEMO\X64\DEBUG\TEXTURE_LOADER.OBJ
C:\USERS\USER\DOCUMENTS\UNI\RESITS\REAL-TIME COMPUTER GRAPHICS\BASE PROJECT LIMBO CLONE\WEEK08 - INTRODUCTION TO 3D\GLDEMO\X64\DEBUG\SHADER_SETUP.OBJ
C:\USERS\USER\DOCUMENTS\UNI\RESITS\REAL-TIME COMPUTER GRAPHICS\BASE PROJECT LIMBO CLONE\WEEK08 - INTRODUCTION TO 3D\GLDEMO\X64\DEBUG\CGPRINCIPLEAXES.OBJ
C:\USERS\USER\DOCUMENTS\UNI\RESITS\REAL-TIME COMPUTER GRAPHICS\BASE PROJECT LIMBO CLONE\WEEK08 - INTRODUCTION TO 3D\GLDEMO\X64\DEBUG\GLDEMO.OBJ
C:\USERS\USER\DOCUMENTS\UNI\RESITS\REAL-TIME COMPUTER GRAPHICS\BASE PROJECT LIMBO CLONE\WEEK08 - INTRODUCTION TO 3D\GLDEMO\X64\DEBUG\CGTEXTUREDQUAD.OBJ
C:\USERS\USER\DOCUMENTS\UNI\RESITS\REAL-TIME COMPUTER GRAPHICS\BASE PROJECT LIMBO CLONE\WEEK08 - INTRODUCTION TO 3D\GLDEMO\X64\DEBUG\AIWRAPPER.OBJ
^C:\USERS\USER\DOCUMENTS\UNI\RESITS\REAL-TIME COMPUTER GRAPHICS\BASE PROJECT LIMBO CLONE\WEEK08 - INTRODUCTION TO 3D\GLDEMO\SRC\CGTEXTUREDQUAD.CPP
C:\USERS\USER\DOCUMENTS\UNI\RESITS\REAL-TIME COMPUTER GRAPHICS\BASE PROJECT LIMBO CLONE\WEEK08 - INTRODUCTION TO 3D\GLDEMO\X64\DEBUG\VC141.PDB
^C:\USERS\USER\DOCUMENTS\UNI\RESITS\REAL-TIME COMPUTER GRAPHICS\BASE PROJECT LIMBO CLONE\WEEK08 - INTRODUCTION TO 3D\GLDEMO\SRC\CGPRINCIPLEAXES.CPP
C:\USERS\USER\DOCUMENTS\UNI\RESITS\REAL-TIME COMPUTER GRAPHICS\BASE PROJECT LIMBO CLONE\WEEK08 - INTRODUCTION TO 3D\GLDEMO\X64\DEBUG\VC141.PDB
^C:\USERS\USER\DOCUMENTS\UNI\RESITS\REAL-TIME COMPUTER GRAPHICS\BASE PROJECT LIMBO CLONE\WEEK08 - INTRODUCTION TO 3D\GLDEMO\SRC\SHADER_SETUP.CPP
C:\USERS\USER\DOCUMENTS\UNI\RESITS\REAL-TIME COMPUTER GRAPHICS\BASE PROJECT LIMBO CLONE\WEEK08 - INTRODUCTION TO 3D\GLDEMO\X64\DEBUG\VC141.PDB
^C:\USERS\USER\DOCUMENTS\UNI\RESITS\REAL-TIME COMPUTER GRAPHICS\BASE PROJECT LIMBO CLONE\WEEK08 - INTRODUCTION TO 3D\GLDEMO\SRC\TEXTURE_LOADER.CPP
C:\USERS\USER\DOCUMENTS\UNI\RESITS\REAL-TIME COMPUTER GRAPHICS\BASE PROJECT LIMBO CLONE\WEEK08 - INTRODUCTION TO 3D\GLDEMO\X64\DEBUG\VC141.PDB
^C:\USERS\USER\DOCUMENTS\UNI\RESITS\REAL-TIME COMPUTER GRAPHICS\BASE PROJECT LIMBO CLONE\WEEK08 - INTRODUCTION TO 3D\GLDEMO\SRC\AIWRAPPER.CPP
C:\USERS\USER\DOCUMENTS\UNI\RESITS\REAL-TIME COMPUTER GRAPHICS\BASE PROJECT LIMBO CLONE\WEEK08 - INTRODUCTION TO 3D\GLDEMO\X64\DEBUG\VC141.PDB
C:\USERS\USER\DOCUMENTS\UNI\RESITS\REAL-TIME COMPUTER GRAPHICS\BASE PROJECT LIMBO CLONE\WEEK08 - INTRODUCTION TO 3D\GLDEMO\X64\DEBUG\VC141.IDB
C:\USERS\USER\DOCUMENTS\UNI\RESITS\REAL-TIME COMPUTER GRAPHICS\BASE PROJECT LIMBO CLONE\WEEK08 - INTRODUCTION TO 3D\GLDEMO\X64\DEBUG\AIWRAPPER.OBJ
^C:\USERS\USER\DOCUMENTS\UNI\RESITS\REAL-TIME COMPUTER GRAPHICS\BASE PROJECT LIMBO CLONE\WEEK08 - INTRODUCTION TO 3D\GLDEMO\SRC\GLDEMO.CPP
C:\USERS\USER\DOCUMENTS\UNI\RESITS\REAL-TIME COMPUTER GRAPHICS\BASE PROJECT LIMBO CLONE\WEEK08 - INTRODUCTION TO 3D\GLDEMO\X64\DEBUG\VC141.PDB
C:\USERS\USER\DOCUMENTS\UNI\RESITS\REAL-TIME COMPUTER GRAPHICS\BASE PROJECT LIMBO CLONE\WEEK08 - INTRODUCTION TO 3D\GLDEMO\X64\DEBUG\VC141.IDB
C:\USERS\USER\DOCUMENTS\UNI\RESITS\REAL-TIME COMPUTER GRAPHICS\BASE PROJECT LIMBO CLONE\WEEK08 - INTRODUCTION TO 3D\GLDEMO\X64\DEBUG\GLDEMO.OBJ
