^C:\USERS\PNA20\ONEDRIVE\DOCUMENTS\TEACHING\CARDIFF MET\YEAR1819\CIS5013 - REAL-TIME COMPUTER GRAPHICS\WEEK01 - INTRODUCTION\TUTORIAL01\MAIN.CPP
/c /ZI /nologo /W3 /WX- /diagnostics:classic /sdl /Od /Oy- /D WIN32 /D _DEBUG /D _CONSOLE /D _LIB /D _UNICODE /D UNICODE /Gm- /EHsc /RTC1 /MDd /GS /fp:precise /Zc:wchar_t /Zc:forScope /Zc:inline /Fo"DEBUG\\" /Fd"DEBUG\VC141.PDB" /Gd /TP /analyze- /FC C:\USERS\PNA20\ONEDRIVE\DOCUMENTS\TEACHING\CARDIFF MET\YEAR1819\CIS5013 - REAL-TIME COMPUTER GRAPHICS\WEEK01 - INTRODUCTION\TUTORIAL01\MAIN.CPP
^C:\USERS\USER\DOCUMENTS\UNI\RESITS\REAL-TIME COMPUTER GRAPHICS\BASE PROJECT LIMBO CLONE\WEEK01 - INTRODUCTION\TUTORIAL01\TEXTURE_LOADER.CPP
/c /ZI /JMC /nologo /W3 /WX- /diagnostics:classic /sdl /Od /Oy- /D WIN32 /D _DEBUG /D _CONSOLE /D _LIB /D _UNICODE /D UNICODE /Gm- /EHsc /RTC1 /MDd /GS /fp:precise /Zc:wchar_t /Zc:forScope /Zc:inline /Fo"DEBUG\\" /Fd"DEBUG\VC141.PDB" /Gd /TP /analyze- /FC C:\USERS\USER\DOCUMENTS\UNI\RESITS\REAL-TIME COMPUTER GRAPHICS\BASE PROJECT LIMBO CLONE\WEEK01 - INTRODUCTION\TUTORIAL01\TEXTURE_LOADER.CPP
^C:\USERS\USER\DOCUMENTS\UNI\RESITS\REAL-TIME COMPUTER GRAPHICS\BASE PROJECT LIMBO CLONE\WEEK01 - INTRODUCTION\TUTORIAL01\MAIN.CPP
/c /ZI /JMC /nologo /W3 /WX- /diagnostics:classic /sdl /Od /Oy- /D WIN32 /D _DEBUG /D _CONSOLE /D _LIB /D _UNICODE /D UNICODE /Gm- /EHsc /RTC1 /MDd /GS /fp:precise /Zc:wchar_t /Zc:forScope /Zc:inline /Fo"DEBUG\\" /Fd"DEBUG\VC141.PDB" /Gd /TP /analyze- /FC C:\USERS\USER\DOCUMENTS\UNI\RESITS\REAL-TIME COMPUTER GRAPHICS\BASE PROJECT LIMBO CLONE\WEEK01 - INTRODUCTION\TUTORIAL01\MAIN.CPP
