^C:\USERS\USER\DOCUMENTS\UNI\RESITS\REAL-TIME COMPUTER GRAPHICS\BASE PROJECT LIMBO CLONE\WEEK01 - INTRODUCTION\TUTORIAL01\TEXTURE_LOADER.CPP
C:\USERS\USER\DOCUMENTS\UNI\RESITS\REAL-TIME COMPUTER GRAPHICS\BASE PROJECT LIMBO CLONE\WEEK01 - INTRODUCTION\TUTORIAL01\DEBUG\VC141.PDB
C:\USERS\USER\DOCUMENTS\UNI\RESITS\REAL-TIME COMPUTER GRAPHICS\BASE PROJECT LIMBO CLONE\WEEK01 - INTRODUCTION\TUTORIAL01\DEBUG\VC141.IDB
C:\USERS\USER\DOCUMENTS\UNI\RESITS\REAL-TIME COMPUTER GRAPHICS\BASE PROJECT LIMBO CLONE\WEEK01 - INTRODUCTION\TUTORIAL01\DEBUG\TEXTURE_LOADER.OBJ
^C:\USERS\USER\DOCUMENTS\UNI\RESITS\REAL-TIME COMPUTER GRAPHICS\BASE PROJECT LIMBO CLONE\WEEK01 - INTRODUCTION\TUTORIAL01\MAIN.CPP
C:\USERS\USER\DOCUMENTS\UNI\RESITS\REAL-TIME COMPUTER GRAPHICS\BASE PROJECT LIMBO CLONE\WEEK01 - INTRODUCTION\TUTORIAL01\DEBUG\VC141.PDB
C:\USERS\USER\DOCUMENTS\UNI\RESITS\REAL-TIME COMPUTER GRAPHICS\BASE PROJECT LIMBO CLONE\WEEK01 - INTRODUCTION\TUTORIAL01\DEBUG\VC141.IDB
C:\USERS\USER\DOCUMENTS\UNI\RESITS\REAL-TIME COMPUTER GRAPHICS\BASE PROJECT LIMBO CLONE\WEEK01 - INTRODUCTION\TUTORIAL01\DEBUG\MAIN.OBJ
