^C:\USERS\USER\DOCUMENTS\UNI\RESITS\REAL-TIME COMPUTER GRAPHICS\TEXTURE MAPPING\WEEK08 - INTRODUCTION TO 3D\TEXTUREMAPPING\X64\DEBUG\AIWRAPPER.OBJ|C:\USERS\USER\DOCUMENTS\UNI\RESITS\REAL-TIME COMPUTER GRAPHICS\TEXTURE MAPPING\WEEK08 - INTRODUCTION TO 3D\TEXTUREMAPPING\X64\DEBUG\CGPRINCIPLEAXES.OBJ|C:\USERS\USER\DOCUMENTS\UNI\RESITS\REAL-TIME COMPUTER GRAPHICS\TEXTURE MAPPING\WEEK08 - INTRODUCTION TO 3D\TEXTUREMAPPING\X64\DEBUG\CGTEXTUREDQUAD.OBJ|C:\USERS\USER\DOCUMENTS\UNI\RESITS\REAL-TIME COMPUTER GRAPHICS\TEXTURE MAPPING\WEEK08 - INTRODUCTION TO 3D\TEXTUREMAPPING\X64\DEBUG\GLDEMO.OBJ|C:\USERS\USER\DOCUMENTS\UNI\RESITS\REAL-TIME COMPUTER GRAPHICS\TEXTURE MAPPING\WEEK08 - INTRODUCTION TO 3D\TEXTUREMAPPING\X64\DEBUG\SHADER_SETUP.OBJ|C:\USERS\USER\DOCUMENTS\UNI\RESITS\REAL-TIME COMPUTER GRAPHICS\TEXTURE MAPPING\WEEK08 - INTRODUCTION TO 3D\TEXTUREMAPPING\X64\DEBUG\TEXTURE_LOADER.OBJ
C:\USERS\USER\DOCUMENTS\UNI\RESITS\REAL-TIME COMPUTER GRAPHICS\TEXTURE MAPPING\WEEK08 - INTRODUCTION TO 3D\TEXTUREMAPPING\X64\DEBUG\TEXTURE MAPPING.EXE
C:\USERS\USER\DOCUMENTS\UNI\RESITS\REAL-TIME COMPUTER GRAPHICS\TEXTURE MAPPING\WEEK08 - INTRODUCTION TO 3D\TEXTUREMAPPING\X64\DEBUG\TEXTURE MAPPING.ILK
C:\USERS\USER\DOCUMENTS\UNI\RESITS\REAL-TIME COMPUTER GRAPHICS\TEXTURE MAPPING\WEEK08 - INTRODUCTION TO 3D\TEXTUREMAPPING\X64\DEBUG\TEXTURE MAPPING.PDB
