^C:\USERS\USER\DOCUMENTS\UNI\RESITS\REAL-TIME COMPUTER GRAPHICS\BASE PROJECT LIMBO CLONE\WEEK08 - INTRODUCTION TO 3D\GLDEMO\X64\DEBUG\AIWRAPPER.OBJ|C:\USERS\USER\DOCUMENTS\UNI\RESITS\REAL-TIME COMPUTER GRAPHICS\BASE PROJECT LIMBO CLONE\WEEK08 - INTRODUCTION TO 3D\GLDEMO\X64\DEBUG\CGPRINCIPLEAXES.OBJ|C:\USERS\USER\DOCUMENTS\UNI\RESITS\REAL-TIME COMPUTER GRAPHICS\BASE PROJECT LIMBO CLONE\WEEK08 - INTRODUCTION TO 3D\GLDEMO\X64\DEBUG\CGTEXTUREDQUAD.OBJ|C:\USERS\USER\DOCUMENTS\UNI\RESITS\REAL-TIME COMPUTER GRAPHICS\BASE PROJECT LIMBO CLONE\WEEK08 - INTRODUCTION TO 3D\GLDEMO\X64\DEBUG\GLDEMO.OBJ|C:\USERS\USER\DOCUMENTS\UNI\RESITS\REAL-TIME COMPUTER GRAPHICS\BASE PROJECT LIMBO CLONE\WEEK08 - INTRODUCTION TO 3D\GLDEMO\X64\DEBUG\SHADER_SETUP.OBJ|C:\USERS\USER\DOCUMENTS\UNI\RESITS\REAL-TIME COMPUTER GRAPHICS\BASE PROJECT LIMBO CLONE\WEEK08 - INTRODUCTION TO 3D\GLDEMO\X64\DEBUG\TEXTURE_LOADER.OBJ
C:\USERS\USER\DOCUMENTS\UNI\RESITS\REAL-TIME COMPUTER GRAPHICS\BASE PROJECT LIMBO CLONE\WEEK08 - INTRODUCTION TO 3D\GLDEMO\X64\DEBUG\GLDEMO.ILK
C:\USERS\USER\DOCUMENTS\UNI\RESITS\REAL-TIME COMPUTER GRAPHICS\BASE PROJECT LIMBO CLONE\WEEK08 - INTRODUCTION TO 3D\GLDEMO\X64\DEBUG\GLDEMO.EXE
C:\USERS\USER\DOCUMENTS\UNI\RESITS\REAL-TIME COMPUTER GRAPHICS\BASE PROJECT LIMBO CLONE\WEEK08 - INTRODUCTION TO 3D\GLDEMO\X64\DEBUG\GLDEMO.PDB
