# Blender MTL File: 'limbo.blend'
# Material Count: 1

newmtl Material.005
Ns 96.078431
Ka 1.000000 1.000000 1.000000
Kd 0.008017 0.008017 0.008017
Ks 0.500000 0.500000 0.500000
Ke 0.000000 0.000000 0.000000
Ni 1.000000
d 1.000000
illum 2
